:020000040810E2
:100004000000000090B5A5B000AF78607B68C7F829
:10001400843001F051FEC7F8800001F073FEF867E8
:10002400D7F88430002B04D0A44AD7F88430136066
:1000340002E0A24BA24A1A60A04B1B68D3F800311D
:10004400D7F880109F4898479C4B1B68D3F8003121
:10005400F96F9D489847994B1B68D3F80031D7F83E
:1000640084109A489847954B1B689B6898470346A9
:100074003B660023C7F88C300023C7F88830944AC5
:100084008AA4D4E90034C2E90034914BD3E90001D5
:10009400904A4FF0000300F065F903460C46C7E9A7
:1000A4001C34D7E91C34234302D0D7E91C3403E0C1
:1000B4004FF001034FF00004C7E91C347F4B1B6869
:1000C400D3F80011D7E91C23834888477B4B1B686E
:1000D400D3F800117E4BD3E900341A4623467F48F7
:1000E4008847764B1B68D3F824316420984700F086
:1000F4005BFB0346002B05D0704B1B68D3F8003123
:100104007748984700F058FC0346002B06DD6B4BFC
:100114001B68D3F8003125217248984702F0D4FBBC
:10012400664B1B68D3F8D8309847644B1B68D3F8E8
:10013400A43007F16002012110469847D7F88C30AB
:100144005A1CC7F88C2018464FF00001D7E91C232D
:1001540000F008F91C461346234307D1002002F09F
:1001640037FCD7F888300133C7F888305E4B1A68FB
:10017400D7F88C30B3FBF2F102FB01F29B1A002B8F
:1001840008D14E4B1B68D3F82431584A126892B2F6
:1001940010469847D7F888300A2B0DD04C4BD3E93A
:1001A400003444A2D2E90012A24208BF99422CD2E0
:1001B400D7F88830012B28D10223A7F850304C4BB4
:1001C40007F140040FCB84E80F0007F14003FB6103
:1001D4003A4B1B68D3F8F03007F10C0210469847ED
:1001E4000346002B11D17B697A69128842F001021F
:1001F40092B21A80314B1B68D3F834317A691046B5
:1002040098472E4B1B689B6998472C4B1B681B6BAC
:1002140007F164000022002198477B6E082B7FF4CD
:100224007FAFBB6E012B03D0BB6E022B7FF478AF84
:100234002F4B07F130040FCB84E80F0000F05AFB7A
:10024400BB6E012B1FD107F13003FB611B4B1B68F5
:10025400D3F8F03007F10C02104698470346002B00
:1002640011D17B697A69128822F0010292B21A8054
:10027400124B1B68D3F834317A69104698470F4BF8
:100284001B689B6998470D4B1B68D3F800311948CC
:1002940098470A4B1B685C69084B1B681B699847A5
:1002A40003461846A0473BE7AFF30080002D310119
:1002B4000000000000CA9A3B00000000FC0400207B
:1002C40000040008E06010080461100824611008AC
:1002D400A000002040420F00446110086C61100827
:1002E4008C611008B8611008040000200000002090
:1002F40008621008EC61100810B5054C237833B976
:10030400044B13B10448AFF300800123237010BDE4
:10031400E004002000000000B05F10080C4B43B163
:100324000C480D4910B5AFF300800C48036823B99D
:1003340010BD0A48036833B97047094B002BF7D046
:10034400BDE810401847064B002BF5D0184700BFF6
:1003540000000000B05F1008E4040020DC0400206A
:100364000000000053B94AB9002908BF00281CBF87
:100374004FF0FF314FF0FF3000F07AB9ADF1080CC7
:100384006DE904CE00F006F8DDF804E0DDE90223AF
:1003940004B070472DE9F0478C460D460446089E8C
:1003A400002B51D18A4217466DD9B2FA82FEBEF1B2
:1003B400000F0BD0CEF1200C01FA0EF520FA0CFC44
:1003C40002FA0EF74CEA050C00FA0EF44FEA174A4B
:1003D400250CBCFBFAF81FFA87F90AFB18CC45EA8E
:1003E4000C4508FB09F3AB420AD9ED1908F1FF32B9
:1003F40080F02381AB4240F22081A8F102083D4401
:10040400ED1AA4B2B5FBFAF00AFB105544EA054410
:1004140000FB09F9A14509D9E41900F1FF3380F083
:100424000A81A14540F2078102383C44A4EB090447
:1004340040EA08400021002E61D024FA0EF4002383
:1004440034607360BDE8F0878B4207D9002E54D026
:10045400002186E821000846BDE8F087B3FA83F15D
:10046400002940F08E80AB4202D3824200F2FA802F
:10047400841A65EB03050120AC46002E3FD086E8C4
:100484001010BDE8F08712B90127B7FBF2F7B7FAED
:1004940087FEBEF1000F34D1EB1B3A0C1FFA87FC28
:1004A4000121B3FBF2F8250C02FB183345EA03459E
:1004B4000CFB08F3AB4207D9ED1908F1FF3002D267
:1004C400AB4200F2D1808046ED1AA3B2B5FBF2F044
:1004D40002FB105543EA05440CFB00FCA44507D974
:1004E400E41900F1FF3302D2A44500F2B8801846A3
:1004F400A4EB0C0440EA08409DE731463046BDE8D1
:10050400F087CEF1200405FA0EF307FA0EF720FA6D
:1005140004F83A0C25FA04F448EA0308B4FBF2F1AF
:100524004FEA184502FB11441FFA87FC45EA0445CB
:1005340001FB0CF3AB4200FA0EF409D9ED1901F1F9
:10054400FF3080F08A80AB4240F2878002393D441C
:10055400EB1A1FFA88F5B3FBF2F002FB103345EAFD
:10056400034500FB0CF3AB4207D9ED1900F1FF384A
:100574006FD2AB426DD902383D44EB1A40EA0141D7
:100584008FE7C1F1200722FA07F88B4005FA01F43E
:1005940048EA030320FA07FE4FEA134CFD404EEAF3
:1005A400040EB5FBFCF94FEA1E440CFB19551FFA67
:1005B40083F844EA054509FB08F4AC4202FA01F267
:1005C40000FA01FA08D9ED1809F1FF3043D2AC4220
:1005D40041D9A9F102091D442D1B1FFA8EFEB5FB5A
:1005E400FCF00CFB10554EEA054400FB08F8A0454E
:1005F40007D9E41800F1FF3529D2A04527D90238DC
:100604001C4440EA0940A4EB0804A0FB02894C45C1
:10061400C6464D4615D312D056B1BAEB0E0364EB61
:10062400050404FA07F7CB401F43CC4037607460DD
:100634000021BDE8F0871846F8E69046E0E6C2459A
:10064400EAD2B8EB020E69EB03050138E4E7284669
:10065400D7E7404691E78146BEE7014678E702388E
:100664003C4445E7084608E7A8F102083D442BE767
:10067400704700BF844641EA000313F003036DD1C1
:10068400403A41D351F8043B40F8043B51F8043B51
:1006940040F8043B51F8043B40F8043B51F8043B58
:1006A40040F8043B51F8043B40F8043B51F8043B48
:1006B40040F8043B51F8043B40F8043B51F8043B38
:1006C40040F8043B51F8043B40F8043B51F8043B28
:1006D40040F8043B51F8043B40F8043B51F8043B18
:1006E40040F8043B51F8043B40F8043B51F8043B08
:1006F40040F8043B51F8043B40F8043B51F8043BF8
:1007040040F8043B403ABDD2303211D351F8043B97
:1007140040F8043B51F8043B40F8043B51F8043BD7
:1007240040F8043B51F8043B40F8043B103AEDD246
:100734000C3205D351F8043B40F8043B043AF9D297
:10074400043208D0D2071CBF11F8013B00F8013B6A
:1007540001D30B8803806046704700BF082A13D377
:100764008B078DD010F003038AD0C3F10403D21A8F
:10077400DB071CBF11F8013B00F8013B80D331F8C3
:10078400023B20F8023B7BE7043AD9D3013A11F843
:10079400013B00F8013BF9D20B7803704B784370AE
:1007A4008B7883706046704780B586B000AF0023B5
:1007B4007B6100233B6100237B6000233B607B68FB
:1007C400002B0AD0454B1B68D3F810313A1D44491D
:1007D40049F640409847386101E001237B603B685B
:1007E400002B0AD03D4B1B68D3F810313A463D49E3
:1007F40047F230509847386101E001233B607B6841
:10080400002B02D03B68002B63D1344B1B68D3F818
:100814000031354898473B69002B57D00023FB73C0
:1008240021E02E4B1B685B6EFA7B114638699847B2
:10083400B860BB68002B13D0BB685B681A462B4BAF
:100844009A420DD3BB685B681946284A284B134467
:10085400994205D2214B1B681B6EB96838699847C9
:10086400FB7B0133FB73FA7B3B699B689A42D8D3C9
:1008740000237B6000233B607B68002B0AD0174B6E
:100884001B68D3F810313A1D154949F64040984782
:10089400386101E001237B603B68002B0AD00F4BD9
:1008A4001B68D3F810313A460E4947F23050984746
:1008B400386101E001233B607B68002B02D03B6878
:1008C400002B06D14FF0FF337B6102E04FF0FF3382
:1008D4007B617B6918461837BD4680BDFC04002047
:1008E4000005002000050020186210080000002008
:1008F40000CC010090B587B000AF0023FB754CE03D
:10090400294B3C1D0FCB84E80F00FB7D062B26D81A
:1009140001A252F823F000BF390910083F0910085A
:10092400450910084B091008510910085709100807
:100934005D0910083023BB7411E03123BB740EE051
:100944003223BB740BE03323BB7408E03423BB7441
:1009540005E03523BB7402E03623BB7400BF134BA0
:100964001B68D3F830313A1D104698470246104BA5
:100974001A600F4B1B68002B0CD00C4B1B685B6977
:100984000B4A126810469847084B1B68D3F800318D
:1009940008489847FB7D0133FB75FB7D052BAFD9D8
:1009A40000BF1C37BD4690BD68621008FC040020DF
:1009B400000500204462100880B582B000AF002317
:1009C4007B60084B1B68D3F84431252106489847BF
:1009D4000346002B01D101237B607B68184608374E
:1009E400BD4680BDFC0400207864100880B483B048
:1009F40000AF0346FB80054B1B68FA881A8000BFD2
:100A04000C37BD465DF8047B704700BF080000202A
:100A140080B400AF034B1B681846BD465DF8047BE9
:100A2400704700BF0800002080B483B000AF786036
:100A3400044B1B687A681A6000BF0C37BD465DF82A
:100A4400047B70470C00002080B400AF034B1B688C
:100A54001846BD465DF8047B704700BF0C000020BB
:100A640080B483B000AF0346FB80054B1B68FA8853
:100A74001A8000BF0C37BD465DF8047B704700BF89
:100A84001000002080B400AF034B1B681846BD461D
:100A94005DF8047B704700BF1000002080B483B071
:100AA40000AF0346FB80054B1B68FA881A8000BF21
:100AB4000C37BD465DF8047B704700BF140000206E
:100AC40080B400AF034B1B681846BD465DF8047B39
:100AD400704700BF1400002080B483B000AF034609
:100AE400FB71054B1B68FA791A7000BF0C37BD46C1
:100AF4005DF8047B704700BF1800002080B400AF8D
:100B0400054B1B685B7803F00203DBB21846BD4655
:100B14005DF8047B704700BF1800002080B400AF6C
:100B2400034B1B681846BD465DF8047B704700BF45
:100B34001800002080B483B000AF0346FB71054B5E
:100B44001B68FA791A7000BF0C37BD465DF8047B48
:100B5400704700BF1C00002080B400AF054B1B6829
:100B64005B7803F00203DBB21846BD465DF8047BF4
:100B7400704700BF1C00002080B400AF034B1B680B
:100B84001846BD465DF8047B704700BF1C0000207A
:100B940080B483B000AF0346FB71054B1B68FA7940
:100BA4001A7000BF0C37BD465DF8047B704700BF68
:100BB4002000002080B400AF054B1B685B7803F075
:100BC4000203DBB21846BD465DF8047B704700BFE4
:100BD4002000002080B400AF034B1B681846BD46BC
:100BE4005DF8047B704700BF2000002080B483B010
:100BF40000AF0346FB71054B1B68FA791A7000BFFE
:100C04000C37BD465DF8047B704700BF240000200C
:100C140080B400AF054B1B685B7803F00203DBB2C2
:100C24001846BD465DF8047B704700BF24000020D1
:100C340080B400AF034B1B681846BD465DF8047BC7
:100C4400704700BF2400002080B483B000AF034687
:100C5400FB71054B1B68FA791A7000BF0C37BD464F
:100C64005DF8047B704700BF2800002080B400AF0B
:100C7400054B1B685B7803F00203DBB21846BD46E4
:100C84005DF8047B704700BF2800002080B400AFEB
:100C9400034B1B681846BD465DF8047B704700BFD4
:100CA4002800002080B483B000AF0346FB71054BDD
:100CB4001B68FA791A7000BF0C37BD465DF8047BD7
:100CC400704700BF2C00002080B400AF054B1B68A8
:100CD4005B7803F00203DBB21846BD465DF8047B83
:100CE400704700BF2C00002080B400AF034B1B688A
:100CF4001846BD465DF8047B704700BF2C000020F9
:100D040080B483B000AF0346FB71054B1B68FA79CE
:100D14001A7000BF0C37BD465DF8047B704700BFF6
:100D24003000002080B400AF054B1B685B7803F0F3
:100D34000203DBB21846BD465DF8047B704700BF72
:100D44003000002080B400AF034B1B681846BD463A
:100D54005DF8047B704700BF3000002080B483B08E
:100D640000AF0346FB71054B1B68FA791A7000BF8C
:100D74000C37BD465DF8047B704700BF340000208B
:100D840080B400AF054B1B685B7803F00203DBB251
:100D94001846BD465DF8047B704700BF3400002050
:100DA40080B400AF034B1B681846BD465DF8047B56
:100DB400704700BF3400002080B483B000AF034606
:100DC400FB80054B1B68FA881A8000BF0C37BD46B0
:100DD4005DF8047B704700BF3800002080B400AF8A
:100DE400054B1B689B7803F00203DBB21846BD4633
:100DF4005DF8047B704700BF3800002080B400AF6A
:100E0400034B1B681846BD465DF8047B704700BF62
:100E14003800002080B483B000AF0346FB80054B4C
:100E24001B68FA881A8000BF0C37BD465DF8047B46
:100E3400704700BF3C00002080B400AF034B1B6828
:100E44001846BD465DF8047B704700BF3C00002097
:100E540080B483B000AF0346FB71054B1B68FA797D
:100E64001A7000BF0C37BD465DF8047B704700BFA5
:100E74004000002080B400AF034B1B681846BD46F9
:100E84005DF8047B704700BF4000002080B483B04D
:100E940000AF0346FB80054B1B68FA881A8000BF2D
:100EA4000C37BD465DF8047B704700BF440000204A
:100EB40080B400AF034B1B681846BD465DF8047B45
:100EC400704700BF4400002080B483B000AF0346E5
:100ED400FB80054B1B68FA881A8000BF0C37BD469F
:100EE4005DF8047B704700BF4800002080B400AF69
:100EF400034B1B681846BD465DF8047B704700BF72
:100F04004800002080B483B000AF0346FB80054B4B
:100F14001B68FA881A8000BF0C37BD465DF8047B55
:100F2400704700BF4C00002080B400AF034B1B6827
:100F34001846BD465DF8047B704700BF4C00002096
:100F440080B483B000AF0346FB80054B1B68FA886E
:100F54001A8000BF0C37BD465DF8047B704700BFA4
:100F64005000002080B400AF034B1B681846BD46F8
:100F74005DF8047B704700BF5000002080B483B04C
:100F840000AF0346FB80054B1B68FA881A8000BF3C
:100F94000C37BD465DF8047B704700BF5400002049
:100FA40080B400AF034B1B681846BD465DF8047B54
:100FB400704700BF5400002080B483B000AF0346E4
:100FC400FB80054B1B68FA881A8000BF0C37BD46AE
:100FD4005DF8047B704700BF5800002080B400AF68
:100FE400034B1B681846BD465DF8047B704700BF81
:100FF4005800002080B483B000AF0346FB80054B4B
:101004001B68FA881A8000BF0C37BD465DF8047B64
:10101400704700BF5C00002080B400AF034B1B6826
:101024001846BD465DF8047B704700BF5C00002095
:1010340080B483B000AF0346FB80054B1B68FA887D
:101044001A8000BF0C37BD465DF8047B704700BFB3
:101054006000002080B400AF054B1B689B7803F050
:101064000203DBB21846BD465DF8047B704700BF3F
:101074006000002080B400AF034B1B681846BD46D7
:101084005DF8047B704700BF6000002080B483B02B
:1010940000AF7860044B1B687A681A6000BF0C3795
:1010A400BD465DF8047B70476400002080B400AF47
:1010B400034B1B681846BD465DF8047B704700BFB0
:1010C4006400002080B483B000AF0346FB80054B6E
:1010D4001B68FA881A8000BF0C37BD465DF8047B94
:1010E400704700BF6800002080B400AF034B1B684A
:1010F4001846BD465DF8047B704700BF68000020B9
:1011040080B483B000AF0346FB80054B1B68FA88AC
:101114001A8000BF0C37BD465DF8047B704700BFE2
:101124006C00002080B400AF034B1B681846BD461A
:101134005DF8047B704700BF6C00002080B483B06E
:1011440000AF0346FB80054B1B68FA881A8000BF7A
:101154000C37BD465DF8047B704700BF700000206B
:1011640080B400AF034B1B681846BD465DF8047B92
:10117400704700BF7000002090B482B000AFC7E990
:101184000001054B1A68D7E90034C2E9003400BFF6
:101194000837BD4690BC70477400002080B400AF8F
:1011A400054B1B681B7A03F00203DBB21846BD46ED
:1011B4005DF8047B704700BF7400002080B400AF6A
:1011C400034B1B681846BD465DF8047B704700BF9F
:1011D4007400002080B483B000AF87ED010A054B92
:1011E4001B687A681A6000BF0C37BD465DF8047B43
:1011F400704700BF7800002080B400AF054B1B6827
:101204001B7903F00203DBB21846BD465DF8047B8C
:10121400704700BF7800002080B400AF034B1B6808
:101224001846BD465DF8047B704700BF7800002077
:1012340080B483B000AF0346FB71054B1B68FA7999
:101244001A7000BF0C37BD465DF8047B704700BFC1
:101254007C00002080B400AF054B1B685B7803F072
:101264000203DBB21846BD465DF8047B704700BF3D
:101274007C00002080B400AF034B1B681846BD46B9
:101284005DF8047B704700BF7C00002080B483B00D
:1012940000AF87ED010A054B1B687A681A6000BF2E
:1012A4000C37BD465DF8047B704700BF800000200A
:1012B40080B400AF054B1B681B7903F00203DBB25B
:1012C4001846BD465DF8047B704700BF80000020CF
:1012D40080B400AF034B1B681846BD465DF8047B21
:1012E400704700BF8000002080B483B000AF87ED5A
:1012F400010A054B1B687A681A6000BF0C37BD46AB
:101304005DF8047B704700BF8400002080B400AF08
:10131400054B1B681B7903F00203DBB21846BD467C
:101324005DF8047B704700BF8400002080B400AFE8
:10133400034B1B681846BD465DF8047B704700BF2D
:101344008400002080B483B000AF0346FB80054BCB
:101354001B68FA881A8000BF0C37BD465DF8047B11
:10136400704700BF8800002080B400AF054B1B68A5
:101374009B7803F00203DBB21846BD465DF8047B9C
:10138400704700BF8800002080B400AF034B1B6887
:101394001846BD465DF8047B704700BF88000020F6
:1013A40080B483B000AF0346FB80054B1B68FA880A
:1013B4001A8000BF0C37BD465DF8047B704700BF40
:1013C4008C00002080B400AF054B1B689B7803F0B1
:1013D4000203DBB21846BD465DF8047B704700BFCC
:1013E4008C00002080B400AF034B1B681846BD4638
:1013F4005DF8047B704700BF8C00002090B482B07D
:1014040000AFC7E90001054B1A68D7E90034C2E907
:10141400003400BF0837BD4690BC704790000020E0
:1014240080B400AF054B1B681B7A03F00203DBB2E8
:101434001846BD465DF8047B704700BF900000204D
:1014440080B400AF034B1B681846BD465DF8047BAF
:10145400704700BF9000002080B483B000AF034603
:10146400FB80054B1B68FA881A8000BF0C37BD4609
:101474005DF8047B704700BF9400002080B400AF87
:10148400034B1B681846BD465DF8047B704700BFDC
:101494009400002080B483B000AF0346FB80054B6A
:1014A4001B68FA881A8000BF0C37BD465DF8047BC0
:1014B400704700BF9800002080B400AF034B1B6846
:1014C4001846BD465DF8047B704700BF98000020B5
:1014D40090B59BB000AF002387F867300423A7F8CA
:1014E4006430B7F864301846FFF780FAA74B1B68DE
:1014F400A64A1268927851B297F86720002A01D060
:10150400042200E000220A4352B2D2B29A7041F699
:1015140058333B66386EFFF787FA9D4B1B689C4A2D
:101524001268127951B297F86720002A01D0042278
:1015340000E000220A4352B2D2B21A710E23A7F875
:101544005E30B7F85E301846FFF78AFA914B1B6895
:10155400904A1268927851B297F86720002A01D015
:10156400042200E000220A4352B2D2B29A7003234A
:10157400A7F85C30B7F85C301846FFF78FFA864B53
:101584001B68854A1268927851B297F86720002A3E
:1015940001D0042200E000220A4352B2D2B29A706F
:1015A400002387F85B3097F85B301846FFF794FA0E
:1015B4007A4B1B68794A1268527851B297F86720BF
:1015C400002A01D0042200E000220A4352B2D2B21F
:1015D4005A70002387F85A3097F85A301846FFF7A4
:1015E400A9FA6F4B1B686E4A1268527851B297F889
:1015F4006720002A01D0042200E000220A4352B2EC
:10160400D2B25A70002387F8593097F859301846E7
:10161400FFF7BEFA634B1B68624A1268527851B2F4
:1016240097F86720002A01D0042200E000220A4330
:1016340052B2D2B25A70002387F8583097F8583013
:101644001846FFF7D3FA584B1B68574A126852786A
:1016540051B297F86720002A01D0042200E000224A
:101664000A4352B2D2B25A70002387F8573097F81F
:1016740057301846FFF7E8FA4C4B1B684B4A126880
:10168400527851B297F86720002A01D0042200E072
:1016940000220A4352B2D2B25A70002387F856305D
:1016A40097F856301846FFF7FDFA414B1B68404A3D
:1016B4001268527851B297F86720002A01D00422A8
:1016C40000E000220A4352B2D2B25A70002387F8D3
:1016D400553097F855301846FFF712FB354B1B6809
:1016E400344A1268527851B297F86720002A01D020
:1016F400042200E000220A4352B2D2B25A700023FC
:1017040087F8543097F854301846FFF727FB2A4BD4
:101714001B68294A1268527851B297F86720002A48
:1017240001D0042200E000220A4352B2D2B25A701D
:101734000023A7F85230B7F852301846FFF73CFBA5
:101744001E4B1B681D4A1268927851B297F86720A5
:10175400002A01D0042200E000220A4352B2D2B28D
:101764009A700223A7F85030B7F850301846FFF7A4
:1017740051FB134B1B68124A1268927851B297F8C6
:101784006720002A1ED004221DE000BF08000020AC
:101794000C0000201000002014000020180000207D
:1017A4001C0000202000002024000020280000202D
:1017B4002C000020300000203400002038000020DD
:1017C4003C00002000220A4352B2D2B29A70042391
:1017D40087F84F3097F84F301846FFF739FBA64B80
:1017E4001B68A54A1268527851B297F86720002AFC
:1017F40001D0042200E000220A4352B2D2B25A704D
:101804000423A7F84C30B7F84C301846FFF73EFBDA
:101814009A4B1B68994A1268927851B297F86720DC
:10182400002A01D0042200E000220A4352B2D2B2BC
:101834009A704CF65B03A7F84A30B7F84A3018465A
:10184400FFF742FB8E4B1B688D4A1268927851B2A7
:1018540097F86720002A01D0042200E000220A43FE
:1018640052B2D2B29A704CF65B03A7F84830B7F87C
:1018740048301846FFF746FB824B1B68814A1268C2
:10188400927851B297F86720002A01D0042200E030
:1018940000220A4352B2D2B29A705923A7F84630B2
:1018A400B7F846301846FFF74BFB774B1B68764A70
:1018B4001268927851B297F86720002A01D0042266
:1018C40000E000220A4352B2D2B29A704CF65B0393
:1018D400A7F84430B7F844301846FFF74FFB6B4B7A
:1018E4001B686A4A1268927851B297F86720002AF6
:1018F40001D0042200E000220A4352B2D2B29A700C
:101904004CF65B03A7F84230B7F842301846FFF7AD
:1019140053FB5F4B1B685E4A1268927851B297F88A
:101924006720002A01D0042200E000220A4352B2B8
:10193400D2B29A704CF65B03A7F84030B7F8403047
:101944001846FFF757FB534B1B68524A12689278AC
:1019540051B297F86720002A01D0042200E0002247
:101964000A4352B2D2B29A700023FB87FB8F184607
:10197400FFF75EFB484B1B68474A1268927851B2E6
:1019840097F86720002A01D0042200E000220A43CD
:1019940052B2D2B29A706423BB63B86BFFF776FB82
:1019A4003E4B1B683D4A1268127951B297F8672082
:1019B400002A01D0042200E000220A4352B2D2B22B
:1019C4001A710623FB86FB8E1846FFF77BFB344B0C
:1019D4001B68334A1268927851B297F86720002A3C
:1019E40001D0042200E000220A4352B2D2B29A701B
:1019F4000923BB86BB8E1846FFF782FB294B1B6865
:101A0400284A1268927851B297F86720002A01D0C8
:101A1400042200E000220A4352B2D2B29A700F2389
:101A24007B867B8E1846FFF789FB1F4B1B681E4A7B
:101A34001268927851B297F86720002A01D00422E4
:101A440000E000220A4352B2D2B29A704FF000036F
:101A54004FF00004C7E90A34D7E90A01FFF78CFB09
:101A6400124B1B68114A1268127A51B297F8672018
:101A7400002A1DD004221CE0400000204400002065
:101A8400480000204C00002050000020540000209A
:101A9400580000205C00002060000020640000204A
:101AA400680000206C0000207000002074000020FA
:101AB40000220A4352B2D2B21A724FF000037B6280
:101AC40097ED090AFFF786FB6B4B1B686A4A12689D
:101AD400127951B297F86720002A01D0042200E05D
:101AE40000220A4352B2D2B21A71002387F823307B
:101AF40097F823301846FFF79BFB604B1B685F4A3F
:101B04001268527851B297F86720002A01D0042253
:101B140000E000220A4352B2D2B25A704FF00003DE
:101B2400FB6197ED070AFFF7B1FB554B1B68544A5D
:101B34001268127951B297F86720002A01D0042262
:101B440000E000220A4352B2D2B21A714FF00003ED
:101B5400BB6197ED060AFFF7C7FB4A4B1B68494A6E
:101B64001268127951B297F86720002A01D0042232
:101B740000E000220A4352B2D2B21A710023FB825F
:101B8400FB8A1846FFF7DEFB3F4B1B683E4A126890
:101B9400927851B297F86720002A01D0042200E01D
:101BA40000220A4352B2D2B29A700023BB82BB8A8B
:101BB4001846FFF7F5FB354B1B68344A12689278D8
:101BC40051B297F86720002A01D0042200E00022D5
:101BD4000A4352B2D2B29A704FF000034FF000049D
:101BE400C7E90234D7E90201FFF708FC284B1B6858
:101BF400274A1268127A51B297F86720002A01D056
:101C0400042200E000220A4352B2D2B21A720B2319
:101C1400FB80FB881846FFF71FFC1E4B1B681D4A00
:101C24001268927851B297F86720002A01D00422F2
:101C340000E000220A4352B2D2B29A700F23BB8052
:101C4400BB881846FFF726FC134B1B68124A126820
:101C5400927851B297F86720002A01D0042200E05C
:101C640000220A4352B2D2B29A7001F0F7FE00BFCA
:101C74006C37BD4690BD00BF780000207C0000207A
:101C84008000002084000020880000208C000020B8
:101C940090000020940000209800002080B582B0BD
:101CA40000AFC7E90001D7E9000101F0EDFE00BF74
:101CB4000837BD4680BD000080B483B000AF0E4B32
:101CC4007B600E4B3B6009E07B681A783B681A70B6
:101CD4007B6801337B603B6801333B603B68084AA7
:101CE4009342F1D3064A054BD31A18460C37BD4626
:101CF4005DF8047B704700BF106E100800000020E0
:101D0400DC04002080B483B000AF0B4B7B6005E0A3
:101D14007B6800221A707B6801337B607B68074A0A
:101D24009342F5D3054A044BD31A18460C37BD46E3
:101D34005DF8047B704700BFE00400209408002095
:101D440080B483B000AF0346FB71FB793B2B00F2F8
:101D5400A38001A252F823F04D1E1008511E100852
:101D6400551E1008591E10085D1E1008611E10082B
:101D7400651E1008691E10086D1E1008711E1008DB
:101D8400751E1008791E10087D1E1008811E10088B
:101D9400851E1008891E10088D1E1008911E10083B
:101DA400951E1008991E10084D1E1008511E10088B
:101DB400551E1008591E10085D1E1008611E1008DB
:101DC400651E1008691E10086D1E1008711E10088B
:101DD400751E1008791E10087D1E1008811E10083B
:101DE400851E1008891E10088D1E1008911E1008EB
:101DF400951E1008991E10084D1E1008511E10083B
:101E0400551E1008591E10085D1E1008611E10088A
:101E1400651E1008691E10086D1E1008711E10083A
:101E2400751E1008791E10087D1E1008811E1008EA
:101E3400851E1008891E10088D1E1008911E10089A
:101E4400951E1008991E1008042326E0082324E098
:101E5400012322E0022320E004231EE008231CE0E7
:101E640001231AE0022318E0042316E0082314E0F7
:101E7400082312E0012310E002230EE004230CE007
:101E840008230AE0012308E07F2306E0082304E096
:101E9400082302E0082300E0002318460C37BD465F
:101EA4005DF8047B704700BF80B584B000AF7860F4
:101EB4000023FB600EE0FB68DB000A4A1344BB60AE
:101EC400BB681B793C2B02D07B68B8689847FB68D9
:101ED4000133FB60FB68A12BEDD900BF1037BD4671
:101EE40080BD00BFF468100880B487B000AFF8600C
:101EF400B9607A60FB681B683B6100237B617B6887
:101F040000221A70FB681B793B2B00F2D48201A2D9
:101F140052F823F0092010081F201008352010085B
:101F24004B20100861201008772010088D2010081D
:101F3400A3201008B9201008CF201008E5201008AD
:101F4400FB20100811211008272110083D2110083A
:101F540053211008692110088121100897211008C5
:101F6400AD211008C9211008EF211008152210080E
:101F74003B2210086122100887221008AD221008A5
:101F8400D3221008F92210081F2310084523100833
:101F94006B23100891231008B7231008DD231008C1
:101FA40003241008292410084F241008752410084D
:101FB4009B241008C3211008E92110080F221008DF
:101FC400352210085B22100881221008A72210086D
:101FD400CD221008F3221008192310083F231008FB
:101FE400652310088B231008B1231008D723100889
:101FF400FD23100823241008492410086F24100816
:10200400952410083B691A797B681A703A69BB6891
:102014001A60BB681B687B614EE23B691A7A7B6875
:102024001A703A69BB681A60BB681B687B6143E23B
:102034003B695A787B681A703A69BB681A60BB6856
:102044001B687B6138E23B699A787B681A703A694D
:10205400BB681A60BB681B687B612DE23B691A7917
:102064007B681A703A69BB681A60BB681B687B613D
:1020740022E23B691A7A7B681A703A69BB681A6073
:10208400BB681B687B6117E23B695A787B681A70EE
:102094003A69BB681A60BB681B687B610CE23B69E8
:1020A4009A787B681A703A69BB681A60BB681B68C7
:1020B4007B6101E23B691A797B681A703A69BB68F3
:1020C4001A60BB681B687B61F6E13B691A7A7B681E
:1020D4001A703A69BB681A60BB681B687B61EBE1E4
:1020E4003B691A7A7B681A703A69BB681A60BB68E4
:1020F4001B687B61E0E13B695A787B681A703A6936
:10210400BB681A60BB681B687B61D5E13B699A7840
:102114007B681A703A69BB681A60BB681B687B618C
:10212400CAE13B691A797B681A703A69BB681A601C
:10213400BB681B687B61BFE13B691A7A7B681A70D4
:102144003A69BB681A60BB681B687B61B4E13B6990
:102154005A787B681A703A69BB681A60BB681B6856
:102164007B61A9E13B6993F87F207B681A703A6927
:10217400BB681A60BB681B687B619DE13B691A7A86
:102184007B681A703A69BB681A60BB681B687B611C
:1021940092E13B691A7A7B681A703A69BB681A60E3
:1021A400BB681B687B6187E13B691A7A7B681A709C
:1021B4003A69BB681A60BB681B687B617CE17B6819
:1021C40008221A707B681A783B691B791343DAB2C8
:1021D4007B681A703B691A68BB681A603B690833EC
:1021E4007B6169E17B6808221A707B681A783B6915
:1021F4001B791343DAB27B681A703B691A68BB68AF
:102204001A603B6908337B6156E17B6808221A70C7
:102214007B681A783B691B791343DAB27B681A70BE
:102224003B691A68BB681A603B6905337B6143E10B
:102234007B6808221A707B681A783B691B79134300
:10224400DAB27B681A703B691A68BB681A603B692A
:1022540006337B6130E17B6808221A707B681A7848
:102264003B691B791343DAB27B681A703B691A68BD
:10227400BB681A603B6908337B611DE17B680822F7
:102284001A707B681A783B691B791343DAB27B684E
:102294001A703B691A68BB681A603B6908337B6132
:1022A4000AE17B6808221A707B681A783B691B79FB
:1022B4001343DAB27B681A703B691A68BB681A6008
:1022C4003B6905337B61F7E07B6808221A707B6801
:1022D4001A783B691B791343DAB27B681A703B693D
:1022E4001A68BB681A603B6906337B61E4E07B686B
:1022F40008221A707B681A783B691B791343DAB297
:102304007B681A703B691A68BB681A603B690833BA
:102314007B61D1E07B6808221A707B681A783B697C
:102324001B791343DAB27B681A703B691A68BB687D
:102334001A603B6908337B61BEE07B6808221A702F
:102344007B681A783B691B791343DAB27B681A708D
:102354003B691A68BB681A603B6908337B61ABE070
:102364007B6808221A707B681A783B691B791343CF
:10237400DAB27B681A703B691A68BB681A603B69F9
:1023840005337B6198E07B6808221A707B681A78B1
:102394003B691B791343DAB27B681A703B691A688C
:1023A400BB681A603B6906337B6185E07B68082261
:1023B4001A707B681A783B691B791343DAB27B681D
:1023C4001A703B691A68BB681A603B6908337B6101
:1023D40072E07B6808221A707B681A783B691B7963
:1023E4001343DAB27B681A703B691A68BB681A60D7
:1023F4003B6908337B615FE07B6808221A707B6865
:102404001A783B691B791343DAB27B681A703B690B
:102414001A68BB681A603B6905337B614CE07B68D2
:1024240008221A707B681A783B691B791343DAB265
:102434007B681A703B691A68BB681A603B6905338C
:102444007B6139E07B6808221A707B681A783B69E3
:102454001B791343DAB27B681A703B691A68BB684C
:102464001A603B6908337B6126E07B6808221A7096
:102474007B681A783B691B791343DAB27B681A705C
:102484003B691A68BB681A603B6908337B6113E0D7
:102494007B6808221A707B681A783B691B7913439E
:1024A400DAB27B681A703B691A68BB681A603B69C8
:1024B40008337B6100E000BF7B681B7803F00203F4
:1024C400002B01D07B6901E0BB681B6818461C37F0
:1024D400BD465DF8047B704780B584B000AFF860FA
:1024E400B9607A60064B1B68D3F80C31FA6890B275
:1024F400BA6892B27968984700BF1037BD4680BD6C
:10250400FC04002080B586B000AF78600023FB6037
:102514000023FB7207F10B0207F10C0319467868DC
:10252400FFF7E2FCFB7A03F00403002B1ED0FB7AD6
:1025340003F01003002B03D07B68DB88FB7506E0F7
:102544007B681B791846FFF7FBFB0346FB75FA7D96
:10255400084B1B6813443B61064B1B68F97DFA6802
:102564001846FFF7B9FF034A3B69136000BF1837E9
:10257400BD4680BDAC0000200000000090B585B0D1
:1025840000AF0023FB604FF000034FF00004C7E9E5
:102594000034124B1B68D3F80C313946082240F63C
:1025A400F8709847F860D7E900340AA2D2E900121B
:1025B400944208BF8B4203D04FF0FF33FB6001E02D
:1025C4000123FB60FB6818461437BD4690BD00BF6D
:1025D400AFF30080289C86B2CD8C3868FC040020C0
:1025E40080B400AF00BFBD465DF8047B70470000B7
:1025F40080B500AF134B144A1A60144B4FF4806239
:102604001A60134B00221A60FFF7EAFFFFF7B6FFC8
:102614000346002B09DD0F4B1B68D3F800310E482D
:1026240098470E48FFF740FC05E00A4B1B68D3F8B7
:1026340000310B489847054B4FF480621A6000BF85
:1026440080BD00BFA8000020CC050020AC00002005
:10265400C8050020FC040020946210080925100815
:10266400A462100880B400AF00BFBD465DF8047BCF
:102674007047000080B584B000AFF860B9607A603C
:10268400064B1B68D3F80831FA6890B2BA6892B264
:102694007968984700BF1037BD4680BDFC04002010
:1026A40080B588B000AF786039600023FB600023F8
:1026B400BB610023FB7207F10B0207F10C031946FF
:1026C4007868FFF711FCB861FB7A03F00503002B6F
:1026D4005CD0FB7A03F01003002B03D07B68DB880B
:1026E400FB7706E07B681B791846FFF729FB034656
:1026F400FB77FB7A03F00103002B33D03B68002BFC
:1027040020D07B681B79102B07D07B681B79242B86
:1027140003D07B681B79382B05D1BB6993F9003052
:10272400DBB20133FB771B4B1A68FB7F13447B61DD
:10273400184B1B68FA7FB9691846FDF79BFF154AC9
:102744007B691360FB7A03F00203002B0AD0FB7A47
:1027540003F00803002B05D0FB68FA7FB96918461B
:10276400FDF788FFFB7A03F00403002B0ED0FA7FF9
:10277400094B1B6813443B61074B1B68F97FFA68DC
:102784001846FFF777FF044A3B69136000BF203700
:10279400BD4680BDA8000020AC00002080B582B0FA
:1027A40000AF786001217868FFF77AFF00BF08372F
:1027B400BD4680BD80B582B000AF786000217868E6
:1027C400FFF76EFF00BF0837BD4680BD80B400AF81
:1027D40000231846BD465DF8047B704780B485B07D
:1027E40000AFF860B9607A60002318461437BD461C
:1027F4005DF8047B704780B400AF00BFBD465DF850
:10280400047B704790B583B000AF0BA4D4E90034C7
:10281400C7E90034074B1B68D3F80831394608224E
:1028240040F6F870984700BF0C37BD4690BD00BF16
:10283400AFF30080FC040020289C86B2CD8C38685D
:1028440080B400AF00BFBD465DF8047B7047000054
:1028540080B582B000AF164B4FF480621A60FFF768
:10286400EFFFFFF7B3FF0346002B17D0012200212F
:102874001048FFF7B3FF78607B68002B08D10E4B3C
:102884000E4A1A600E48FFF70FFBFFF7EBFE02E05B
:102894000C48FFF709FBFFF7AEFF02E00948FFF71A
:1028A40003FBFFF7AFFF00BF0837BD4680BD00BF85
:1028B400AC000020C8050020A8000020CC050020A2
:1028C400A1271008B927100898B500AF084B0022BB
:1028D4001A60084A4FF000034FF00004C2E90034C4
:1028E400FEF7F6FDFFF784FE0023184698BD00BFEF
:1028F400E8050020E005002090B595B000AF7860B1
:10290400224B07F140040FCB07C4238007F1400397
:10291400FB621F4B1B68D3F8F03007F11C02104612
:1029240098470346002B26D14FF000034FF00004D4
:10293400C7E904343B8E3B817B6BA7F84E30144BC4
:102944001B68D3F8E430B7F84E2007F108011046AD
:1029540098470346002B07D13B691A467B681A60E7
:102964007B6800225A600CE0094B1B68D3F8FC30EA
:102974003B20984705E0064B1B68D3F8FC303B200E
:10298400984700BF5437BD4690BD00BFE8621008A9
:10299400FC04002098B500AF0B48FFF7ADFF0B4BCC
:1029A400D3E90034013344F10004084AC2E9003495
:1029B400064BD3E9003418462146FFF76FF9FFF7B9
:1029C40047FF00BF98BD00BFD8050020E0050020E8
:1029D40080B582B000AF7860FFF7DCFF00231846B3
:1029E4000837BD4680BD80B582B000AF78600B4625
:1029F400FB707B68FA781146184602F013FC7B687A
:102A04001033FA781146184602F0DEFC7B681C335A
:102A1400FA781146184602F0C1F87B683833FA7820
:102A24001146184602F056FA7B684833FA78114684
:102A3400184602F02BFF7B685033FA78114618468B
:102A440002F000F87B685833FA781146184601F012
:102A540039FF7B687033FA781146184601F0E4F9BF
:102A64007B687833FA781146184601F02BFC7B68B2
:102A74008433FA781146184601F046FD7B68983392
:102A8400FA781146184601F063FB7B68A033FA78A4
:102A94001146184601F0F2F87B68B033FA78114613
:102AA400184603F071F87B68C833FA781146184663
:102AB40001F074FA7B68D033FA781146184602F0B4
:102AC40057FD7B68DC33FA781146184602F016FE8F
:102AD4007B68E833FA781146184600F0EDFF7B680E
:102AE40003F58073FA781146184602F07BFF7B6881
:102AF40003F58673FA781146184601F029FEFDF7AE
:102B040087FF02467B68C3F818217B6893F81C3161
:102B14005AB2FB78002B01D0042300E000231343B6
:102B24005BB2DAB27B6883F81C21FDF78DFF0246A5
:102B34007B68C3F820217B6893F824315AB2FB7870
:102B4400002B01D0042300E0002313435BB2DAB26C
:102B54007B6883F82421FDF795FF02467B68C3F860
:102B64002C217B6893F830315AB2FB78002B01D0CA
:102B7400042300E0002313435BB2DAB27B6883F8DA
:102B84003021FDF79DFF02467B68C3F834217B6842
:102B940093F838315AB2FB78002B01D0042300E0BB
:102BA400002313435BB2DAB27B6883F83821FDF764
:102BB400B5FF02467B68C3F83C217B6893F840313B
:102BC4005AB2FB78002B01D0042300E00023134306
:102BD4005BB2DAB27B6883F84021FDF7CDFF024691
:102BE4007B68C3F844217B6893F848315AB2FB7878
:102BF400002B01D0042300E0002313435BB2DAB2BC
:102C04007B6883F84821FDF7E5FF02467B68C3F83B
:102C14004C217B6893F850315AB2FB78002B01D0D9
:102C2400042300E0002313435BB2DAB27B6883F829
:102C34005021FDF7FDFF02467B68C3F854217B68F1
:102C440093F858315AB2FB78002B01D0042300E0EA
:102C5400002313435BB2DAB27B6883F85821FEF792
:102C640015F802467B68C3F85C217B6893F86031F1
:102C74005AB2FB78002B01D0042300E00023134355
:102C84005BB2DAB27B6883F86021FEF72DF8024666
:102C94007B68C3F864217B6893F868315AB2FB7887
:102CA400002B01D0042300E0002313435BB2DAB20B
:102CB4007B6883F86821FEF745F802467B68C3F811
:102CC4006C217B6893F870315AB2FB78002B01D0E9
:102CD400042300E0002313435BB2DAB27B6883F879
:102CE4007021FEF75DF802467B68C3F874217B68A7
:102CF40093F878315AB2FB78002B01D0042300E01A
:102D0400002313435BB2DAB27B6883F87821FEF7C1
:102D140075F802467B68C3F87C217B6893F88031A0
:102D24005AB2FB78002B01D0042300E000231343A4
:102D34005BB2DAB27B6883F88021FEF79BF8024627
:102D44007B68C3F884217B6893F888315AB2FB7896
:102D5400002B01D0042300E0002313435BB2DAB25A
:102D64007B6883F88821FEF767F802467B68C3F81E
:102D74008C217B6893F890315AB2FB78002B01D0F8
:102D8400042300E0002313435BB2DAB27B6883F8C8
:102D94009021FEF78DF802467B68C3F894217B6886
:102DA40093F898315AB2FB78002B01D0042300E049
:102DB400002313435BB2DAB27B6883F89821FEF7F1
:102DC40095F802467B68C3F89C217B6893F8A03190
:102DD4005AB2FB78002B01D0042300E000231343F4
:102DE4005BB2DAB27B6883F8A021FEF79DF8024655
:102DF4007B68C3F8A4217B6893F8A8315AB2FB78A6
:102E0400002B01D0042300E0002313435BB2DAB2A9
:102E14007B6883F8A821FEF7A5F802467B68C3F80F
:102E2400AC217B6893F8B0315AB2FB78002B01D007
:102E3400042300E0002313435BB2DAB27B6883F817
:102E4400B021FEF7ADF802467B68C3F8B4217B6875
:102E540093F8B8315AB2FB78002B01D0042300E078
:102E6400002313435BB2DAB27B6883F8B821FEF720
:102E7400B5F802467B68C3F8BC217B6893F8C0317F
:102E84005AB2FB78002B01D0042300E00023134343
:102E94005BB2DAB27B6883F8C021FEF7BDF8024664
:102EA4007B68C3F8C4217B6893F8C8315AB2FB78B5
:102EB400002B01D0042300E0002313435BB2DAB2F9
:102EC4007B6883F8C821FEF7D5F802467B68C3F80F
:102ED400CC217B6893F8D0315AB2FB78002B01D017
:102EE400042300E0002313435BB2DAB27B6883F867
:102EF400D021FEF7DBF802467B68C3F8D4217B6857
:102F040093F8D8315AB2FB78002B01D0042300E0A7
:102F1400002313435BB2DAB27B6883F8D821FEF74F
:102F2400E3F802467B68C3F8E0217B6893F8E43158
:102F34005AB2FB78002B01D0042300E00023134392
:102F44005BB2DAB27B6883F8E421FEF7EBF8024661
:102F54007B68C3F8E8217B6893F8EC315AB2FB78BC
:102F6400002B01D0042300E0002313435BB2DAB248
:102F74007B6883F8EC21FEF7F3F802467B68C3F81C
:102F8400F0217B6893F8F4315AB2FB78002B01D01E
:102F9400042300E0002313435BB2DAB27B6883F8B6
:102FA400F421FEF70BF902467B68C3F8F8217B682D
:102FB40093F8FC315AB2FB78002B01D0042300E0D3
:102FC400002313435BB2DAB27B6883F8FC21FEF77B
:102FD40023F902467B68C3F808227B6893F80C3215
:102FE4005AB2FB78002B01D0042300E000231343E2
:102FF4005BB2DAB27B6883F80C22FEF73BF9024637
:103004007B68C3F814227B6893F818325AB2FB78B1
:10301400002B01D0042300E0002313435BB2DAB297
:103024007B6883F81822FEF753F902467B68C3F8DD
:103034001C227B6893F820325AB2FB78002B01D013
:10304400042300E0002313435BB2DAB27B6883F805
:103054002022FEF76BF902467B68C3F828227B68BE
:1030640093F82C325AB2FB78002B01D0042300E0F1
:10307400002313435BB2DAB27B6883F82C22FEF799
:1030840083F902467B68C3F834227B6893F83832AC
:103094005AB2FB78002B01D0042300E00023134331
:1030A4005BB2DAB27B6883F83822FEF79BF90246FA
:1030B4007B68C3F83C227B6893F840325AB2FB78B1
:1030C400002B01D0042300E0002313435BB2DAB2E7
:1030D4007B6883F84022FEF7B3F902467B68C3F8A5
:1030E40048227B6893F84C325AB2FB78002B01D00B
:1030F400042300E0002313435BB2DAB27B6883F855
:103104004C22FEF7BBF902467B68C3F858227B6861
:1031140093F85C325AB2FB78002B01D0042300E010
:10312400002313435BB2DAB27B6883F85C22FEF7B8
:10313400C3F902467B68C3F860227B6893F8643263
:103144005AB2FB78002B01D0042300E00023134380
:103154005BB2DAB27B6883F864227B68002283F86E
:1031640068227B6893F869325AB2FB78002B01D04D
:10317400042300E0002313435BB2DAB27B6883F8D4
:1031840069227B68002283F86A227B6893F86B3299
:103194005AB2FB78002B01D0042300E00023134330
:1031A4005BB2DAB27B6883F86B227B684FF0000273
:1031B400C3F86C227B6893F870325AB2FB78002B08
:1031C40001D0042300E0002313435BB2DAB27B682E
:1031D40083F870227B6803F51D73FA78114618464C
:1031E40001F04CFF00BF0837BD4680BD90B583B0E9
:1031F40000AF78607B689833184600F0E9FF7B687D
:1032040093F8183203F00203002B0BD1FEF722F8D7
:103214000346002B06D17B68D3F814327A6892F8FF
:103224009C201A707B688433184601F0BFF97B68D0
:1032340093F8203203F00203002B0BD1FEF738F889
:103244000346002B06D17B68D3F81C327A68D2F887
:1032540088201A607B6893F82C3203F00203002B59
:103264000BD1FEF753F80346002B06D17B68D3F845
:1032740028327A68D2F890201A607B68783318462E
:1032840001F070F87B6893F8383203F00203002BE6
:103294000BD1FEF769F80346002B06D17B68D3F8FF
:1032A40034327A68B2F87C201A807B6893F8403212
:1032B40003F00203002B0BD1FEF784F80346002B26
:1032C40006D17B68D3F83C327A68B2F880201A8041
:1032D4007B68B033184602F01FFD7B6893F84031D9
:1032E40003F00203002B0BD1FDF708FC0346002B6F
:1032F40006D17B68D3F83C317A6892F8B4201A700E
:103304007B687033184600F0CFFD7B6893F8D031AA
:1033140003F00203002B0BD1FDF79CFE0346002BA8
:1033240006D17B68D3F8CC317A68B2F874201A805D
:103334007B6893F8483103F00203002B0BD1FDF7AF
:103344000BFC0346002B06D17B68D3F844317A6822
:1033540092F8B6201A707B6893F8EE3003F00203FB
:10336400002B11D17B6893F81C3103F00203002B6E
:1033740003D07B68B3F81E3103E07B68D3F81831BF
:103384001B887A68A2F8EC307B68E833184600F0B2
:10339400E7FB7B6893F8FC3103F00203002B0CD1AC
:1033A400FDF7FCFE0346002B07D17B68D3F8F82118
:1033B4007B68D3E93C34C2E900347B6893F850312C
:1033C40003F00203002B0BD1FDF7F4FB0346002BA3
:1033D40006D17B68D3F84C317A6892F8B8201A7019
:1033E4007B685833184601F0AFFA7B6893F84C3287
:1033F40003F00203002B0CD1FEF712F80346002B56
:1034040007D17B68D3F848227B68D3E91834C2E932
:1034140000347B6893F8583103F00203002B0BD17E
:10342400FDF7F6FB0346002B06D17B68D3F8543135
:103434007A6892F8BA201A707B6893F8A63003F081
:103444000203002B11D17B6893F81C3103F00203B3
:10345400002B03D07B68B3F81E3103E07B68D3F8FC
:1034640018311B887A68A2F8A4307B68A033184608
:1034740000F056FC7B6893F80C3203F00203002B37
:103484000BD1FDF7B9FE0346002B06D17B68D3F8B8
:1034940008327A68D2F8A8201A607B6893F8603101
:1034A40003F00203002B0BD1FDF7E0FB0346002BD6
:1034B40006D17B68D3F85C317A6892F8BC201A7024
:1034C4007B6893F8683103F00203002B0BD1FDF7FE
:1034D400FBFB0346002B06D17B68D3F864317A6882
:1034E40092F8BE201A707B68C833184600F0A6FD17
:1034F4007B6893F8693203F00203002B05D17B68E3
:1035040093F8CC207B6883F868227B6893F8703149
:1035140003F00203002B0BD1FDF704FC0346002B40
:1035240006D17B68D3F86C317A6892F8C0201A709F
:103534007B6893F86B3203F00203002B05D17B68A0
:1035440093F8CE207B6883F86A227B6803F5867340
:10355400184601F03DF97B6893F8703203F00203DA
:10356400002B05D17B68D3F810217B68C3F86C224B
:103574007B6893F8783103F00203002B0BD1FDF73D
:10358400FFFB0346002B06D17B68D3F874317A68BD
:1035940092F8C2201A707B6893F8803103F002031A
:1035A400002B0BD1FDF71AFC0346002B06D17B68D8
:1035B400D3F87C317A68B2F8C4201A807B689B798E
:1035C40003F00203002B10D17B6893F81C3103F045
:1035D4000203002B03D07B68B3F81E3103E07B6841
:1035E400D3F818311B887A6893807B681B7B03F0BF
:1035F4000203002B10D17B6893F8243103F00203FB
:10360400002B03D07B68D3F8283103E07B68D3F820
:1036140020311B687A6893607B68184601F052FE7B
:103624007B6893F84E3003F00203002B11D17B68C2
:1036340093F8F43103F00203002B03D07B68B3F852
:10364400F63103E07B68D3F8F0311B887A68A2F87E
:103654004C307B684833184602F058F97B6893F87D
:10366400223003F00203002B10D17B6893F8A031C1
:1036740003F00203002B03D07B68B3F8A23103E00C
:103684007B68D3F89C311B887A6813847B6893F831
:10369400263003F00203002B10D17B6893F8A83185
:1036A40003F00203002B03D07B68B3F8AA3103E0D4
:1036B4007B68D3F8A4311B887A6893847B6893F879
:1036C4002A3003F00203002B10D17B6893F8B03149
:1036D40003F00203002B03D07B68B3F8B23103E09C
:1036E4007B68D3F8AC311B887A6813857B6893F8C0
:1036F4002E3003F00203002B10D17B6893F8B8310D
:1037040003F00203002B03D07B68B3F8BA3103E063
:103714007B68D3F8B4311B887A6893857B6893F807
:10372400323003F00203002B10D17B6893F8C031D0
:1037340003F00203002B03D07B68B3F8C23103E02B
:103744007B68D3F8BC311B887A6813867B6893F84E
:10375400363003F00203002B10D17B6893F8C83194
:1037640003F00203002B03D07B68B3F8CA3103E0F3
:103774007B68D3F8C4311B887A6893867B681C33D2
:10378400184601F09FFA7B6893F8E23003F00203D5
:10379400002B11D17B6893F8E43103F00203002B72
:1037A40003D07B68B3F8E63103E07B68D3F8E031FB
:1037B4001B887A68A2F8E0307B6893F8E63003F05F
:1037C4000203002B11D17B6893F8EC3103F0020360
:1037D400002B03D07B68B3F8EE3103E07B68D3F8A9
:1037E400E8311B887A68A2F8E4307B68DC33184639
:1037F40001F0D4FF7B6893F87A3203F00203002BC4
:1038040011D17B6893F81C3103F00203002B03D021
:103814007B68B3F81E3103E07B68D3F818311B884A
:103824007A68A2F878327B6893F87E3203F0020358
:10383400002B11D17B6893F8303103F00203002B85
:1038440003D07B68B3F8323103E07B68D3F82C31C2
:103854001B887A68A2F87C327B6803F51D731846CE
:1038640001F05CFC7B6893F8563003F00203002BF4
:1038740011D17B6893F8983103F00203002B03D035
:103884007B68B3F89A3103E07B68D3F894311B88E2
:103894007A68A2F854307B685033184601F012F964
:1038A4007B689B7D03F00203002B10D17B6893F8A7
:1038B4001C3103F00203002B03D07B68B3F81E31E4
:1038C40003E07B68D3F818311B887A6893827B689D
:1038D4009B7E03F00203002B10D17B6893F83831F0
:1038E40003F00203002B03D07B68B3F83A3103E002
:1038F4007B68D3F834311B887A6813837B68103370
:10390400184601F0B1FD7B6893F8053103F002031A
:10391400002B11D17B6893F8883103F00203002B4C
:1039240003D07B6893F8893103E07B68D3F8843152
:103934001B787A6882F804317B6893F8083103F0C5
:103944000203002B11D17B6893F8903103F002033A
:10395400002B03D07B68B3F8923103E07B68D3F883
:103964008C311B887A68A2F806317B6803F5807372
:10397400184602F087F87B6893F83D3003F00203A1
:10398400002B11D17B6893F8883103F00203002BDC
:1039940003D07B6893F8893103E07B68D3F88431E2
:1039A4001B787A6882F83C307B6893F8443003F0E3
:1039B4000203002B10D17B6893F8D83103F0020383
:1039C400002B03D07B68D3F8DC3103E07B68D3F8A9
:1039D400D4311B687A6813647B683833184601F065
:1039E400C9FA7B6893F8D63003F00203002B11D197
:1039F4007B6893F85C3203F00203002B03D07B68EE
:103A0400B3F85E3203E07B68D3F858321B887A68D7
:103A1400A2F8D4307B6893F8DA3003F00203002B69
:103A240011D17B6893F8643203F00203002B03D0B6
:103A34007B68B3F8663203E07B68D3F860321B8896
:103A44007A68A2F8D8307B68D033184601F0E0FDDC
:103A540000BF00BF0C37BD4690BD000080B582B0EA
:103A640000AF0023FB71064B00221A70FB79194644
:103A74000448FEF7B8FF00BF0837BD4680BD00BF4D
:103A8400EC050020F005002080B582B000AFC7E946
:103A94000001074B01221A70054B1B78002B02D042
:103AA4000448FFF7A3FB00BF0837BD4680BD00BF35
:103AB400EC050020F005002090B482B000AF7860DF
:103AC4000B46FB707B6801221A707B685B785AB2E4
:103AD400FB78002B01D0042300E0002313435BB2E6
:103AE400DAB27B685A707B6801229A707B68DB7853
:103AF4005AB2FB78002B01D0042300E000231343C7
:103B04005BB2DAB27B68DA707B6800229A807B68E9
:103B14009B795AB2FB78002B01D0042300E00023E8
:103B240013435BB2DAB27B689A717A684FF0000390
:103B34004FF00004C2E902347B681B7C5AB2FB7864
:103B4400002B01D0042300E0002313435BB2DAB25C
:103B54007B681A7400BF0837BD4690BC70470000EC
:103B640090B593B000AF78607B681B78002B09D1C7
:103B74007B68DB7803F00203002B74D17B6800229E
:103B84009A7070E07B68DB7803F00203002B02D1AB
:103B94007B6801229A70374A07F13C0392E80300DC
:103BA40018600433198002330A0C1A7007F13C03BD
:103BB400BB62314B1B68D3F8F03007F11802104692
:103BC40098470346002B43D14FF000034FF0000405
:103BD400C7E90434BB8D3B813B6BA7F84630264BC9
:103BE4001B68D3F8EC30BA8D1046984703469AB256
:103BF4007B689B8812FB03F3A7F84430B7F8462090
:103C0400B7F844301344A7F846301B4B1B68D3F86D
:103C1400E430B7F8462007F10801104698470346F8
:103C2400002B0BD17B681B7C03F00203002B1CD1FF
:103C3400D7E904347A68C2E9023416E07B68DB7899
:103C440003F00203002B10D17B6800229A700CE071
:103C54007B68DB7803F00203002B06D17B6800222B
:103C64009A7000BF01E000BF00E000BF4C37BD46C2
:103C740090BD00BF20631008FC04002080B483B012
:103C840000AF78600B46FB707B6801221A707B687A
:103C94005B785AB2FB78002B01D0042300E00023A8
:103CA40013435BB2DAB27B685A707B6801229A7064
:103CB4007B68DB785AB2FB78002B01D0042300E048
:103CC400002313435BB2DAB27B68DA707B680022AC
:103CD4009A807B689B795AB2FB78002B01D004232D
:103CE40000E0002313435BB2DAB27B689A717B680D
:103CF4004FF000029A607B681B7B5AB2FB78002B62
:103D040001D0042300E0002313435BB2DAB27B68E2
:103D14001A7300BF0C37BD465DF8047B7047000082
:103D240080B592B000AF78607B681B78002B09D116
:103D34007B68DB7803F00203002B6BD17B680022E5
:103D44009A7067E07B68DB7803F00203002B02D1F2
:103D54007B6801229A70324A07F13C0392E803001F
:103D640083E8030007F13C03BB622E4B1B68D3F8C6
:103D7400F03007F11802104698470346002B3ED155
:103D84004FF000033B61BB8D3B813B6BA7F8463092
:103D9400244B1B68D3F8EC30BA8D10469847034681
:103DA4009AB27B689B8812FB03F3A7F84430B7F8F8
:103DB4004620B7F844301344A7F84630194B1B6823
:103DC400D3F8E430B7F8462007F1080110469847C5
:103DD4000346002B09D17B681B7B03F00203002BF5
:103DE4001AD13A697B689A6016E07B68DB7803F045
:103DF4000203002B10D17B6800229A700CE07B68D0
:103E0400DB7803F00203002B06D17B6800229A7052
:103E140000BF01E000BF00E000BF4837BD4680BDE1
:103E240028631008FC04002080B483B000AF7860DD
:103E34000B46FB707B6801221A707B685B785AB270
:103E4400FB78002B01D0042300E0002313435BB272
:103E5400DAB27B685A707B6801229A707B68DB78DF
:103E64005AB2FB78002B01D0042300E00023134353
:103E74005BB2DAB27B68DA707B6800229A807B6876
:103E84009B795AB2FB78002B01D0042300E0002375
:103E940013435BB2DAB27B689A7100BF0C37BD463C
:103EA4005DF8047B7047000090B593B000AF786074
:103EB4007B681B78002B09D17B68DB7803F0020355
:103EC400002B60D17B6800229A705CE07B68DB7811
:103ED40003F00203002B02D17B6800229A702D4A62
:103EE40007F13C0307CA03C31A7007F13C03BB6222
:103EF400294B1B68D3F8F03007F118021046984795
:103F04000346002B34D14FF000034FF00004C7E9FF
:103F14000434BB8D3B813B6BA7F846301E4B1B68BA
:103F2400D3F8E430B7F8462007F108011046984763
:103F34000346002B12D17B689B7903F00203002B0C
:103F440002D13A8A7B689A807B68DB7803F00203AB
:103F5400002B1AD17B6801229A7016E07B68DB780B
:103F640003F00203002B10D17B6800229A700CE04E
:103F74007B68DB7803F00203002B06D17B68002208
:103F84009A7000BF01E000BF00E000BF4C37BD469F
:103F940090BD00BF30631008FC04002080B483B0DF
:103FA40000AF78600B46FB707B6801221A707B6857
:103FB4005B785AB2FB78002B01D0042300E0002385
:103FC40013435BB2DAB27B685A707B6801229A7041
:103FD4007B68DB785AB2FB78002B01D0042300E025
:103FE400002313435BB2DAB27B68DA707B68002289
:103FF4001A717B685B795AB2FB78002B01D00423D9
:1040040000E0002313435BB2DAB27B685A717B6829
:1040140000229A717B68DB795AB2FB78002B01D0BD
:10402400042300E0002313435BB2DAB27B68DA7145
:1040340000BF0C37BD465DF8047B704790B595B062
:1040440000AF78607B681B78002B09D17B68DB7834
:1040540003F00203002B71D17B6800229A706DE09B
:104064007B68DB7803F00203002B02D17B6800221B
:104074009A70354A07F1400307CA03C31A80023312
:10408400120C1A7007F14003FB62304B1B68D3F823
:10409400F03007F11C02104698470346002B42D12A
:1040A4004FF000034FF00004C7E904343B8E3B811A
:1040B4007B6BA7F84E30254B1B68D3F8E430B7F878
:1040C4004E2007F10801104698470346002B20D1E3
:1040D4007B685B7903F00203002B04D13B7C1B0952
:1040E400DAB27B681A717B68DB7903F00203002B78
:1040F40005D13B7C03F00F03DAB27B689A717B68CD
:10410400DB7803F00203002B1AD17B6801229A703A
:1041140016E07B68DB7803F00203002B10D17B6888
:1041240000229A700CE07B68DB7803F00203002B1A
:1041340006D17B6800229A7000BF01E000BF00E056
:1041440000BF5437BD4690BD44631008FC040020F2
:1041540080B483B000AF78600B46FB707B680122AB
:104164001A707B685B785AB2FB78002B01D0042369
:1041740000E0002313435BB2DAB27B685A707B68B9
:1041840001229A707B68DB785AB2FB78002B01D04D
:10419400042300E0002313435BB2DAB27B68DA70D5
:1041A4007B6800221A717B685B795AB2FB78002B1A
:1041B40001D0042300E0002313435BB2DAB27B682E
:1041C4005A7100BF0C37BD465DF8047B7047000090
:1041D40090B593B000AF78607B681B78002B09D151
:1041E4007B68DB7803F00203002B60D17B6800223C
:1041F4009A705CE07B68DB7803F00203002B02D149
:104204007B6800229A702D4A07F13C0307CA03C356
:104214001A7007F13C03BB62294B1B68D3F8F030DA
:1042240007F11802104698470346002B34D14FF08B
:1042340000034FF00004C7E90434BB8D3B813B6BA2
:10424400A7F846301E4B1B68D3F8E430B7F8462075
:1042540007F10801104698470346002B12D17B68EA
:104264005B7903F00203002B02D13A7C7B681A715C
:104274007B68DB7803F00203002B1AD17B680122F0
:104284009A7016E07B68DB7803F00203002B10D1F0
:104294007B6800229A700CE07B68DB7803F00203F1
:1042A400002B06D17B6800229A7000BF01E000BF9A
:1042B40000E000BF4C37BD4690BD00BF50631008FE
:1042C400FC04002080B483B000AF78600B46FB7020
:1042D4007B6801221A707B685B785AB2FB78002BEA
:1042E40001D0042300E0002313435BB2DAB27B68FD
:1042F4005A707B6801229A707B68DB785AB2FB782B
:10430400002B01D0042300E0002313435BB2DAB294
:104314007B68DA707B6800229A807B689B795AB24A
:10432400FB78002B01D0042300E0002313435BB28D
:10433400DAB27B689A717B6800221A817B689B7A67
:104344005AB2FB78002B01D0042300E0002313436E
:104354005BB2DAB27B689A7200BF0C37BD465DF877
:10436400047B704790B59BB000AF78607B681B7886
:10437400002B0AD17B68DB7803F00203002B40F0AA
:10438400B7807B6800229A70B2E07B68DB7803F028
:104394000203002B02D17B6800229A70574A07F16E
:1043A400580307CA03C31A80554A07F14C0307CAC6
:1043B40003C31A800233120C1A7007F15803BB634B
:1043C400504B1B68D3F8F03007F128021046984789
:1043D4000346002B40F081804FF000034FF00004AF
:1043E400C7E90834BB8F3B833B6CA7F86630454B69
:1043F4001B68D3F8E430B7F8662007F118011046BB
:1044040098470346002B12D17B689B7903F0020383
:10441400002B02D13A8C7B689A807B68DB7803F0AE
:104424000203002B0CD17B6801229A7008E07B68A0
:10443400DB7803F00203002B02D17B6800229A7020
:1044440007F14C03BB632F4B1B68D3F8F03007F123
:104454002802104698470346002B34D14FF000033E
:104464004FF00004C7E90434BB8F3B813B6CA7F8D1
:104474006430244B1B68D3F8E430B7F8642007F1A8
:104484000801104698470346002B12D17B689B7A9B
:1044940003F00203002B02D13A8A7B681A817B68FD
:1044A400DB7803F00203002B24D17B6801229A708D
:1044B40020E07B68DB7803F00203002B1AD17B68D1
:1044C40000229A7016E07B68DB7803F00203002B6D
:1044D40010D17B6800229A700CE07B68DB7803F0D3
:1044E4000203002B06D17B6800229A7000BF01E012
:1044F40000BF00E000BF6C37BD4690BD5C63100890
:1045040068631008FC04002080B483B000AF7860B6
:104514000B46FB707B6801221A707B685B785AB289
:10452400FB78002B01D0042300E0002313435BB28B
:10453400DAB27B685A707B6801229A707B68DB78F8
:104544005AB2FB78002B01D0042300E0002313436C
:104554005BB2DAB27B68DA707B684FF000025A60B3
:104564007B681B7A5AB2FB78002B01D0042300E04D
:10457400002313435BB2DAB27B681A727B684FF094
:104584000002DA607B681B7C5AB2FB78002B01D0F6
:10459400042300E0002313435BB2DAB27B681A748D
:1045A40000BF0C37BD465DF8047B704790B599B0E9
:1045B40000AF78607B681B78002B0AD17B68DB78BE
:1045C40003F00203002B40F0B7807B6800229A704E
:1045D400B2E07B68DB7803F00203002B02D17B6836
:1045E40000229A70574A07F1540392E803001860B6
:1045F40004331980544A07F14C0392E8030018600D
:104604000433198007F15403BB63504B1B68D3F880
:10461400F03007F12802104698470346002B34D1A6
:104624004FF000034FF00004C7E90834BB8F3B830D
:104634003B6CA7F85E30454B1B68D3F8E430B7F801
:104644005E2007F11801104698470346002B12D14B
:104654007B681B7C03F00203002B02D13A6A7B685F
:10466400DA607B68DB7803F00203002B16D17B68E9
:1046740001229A7012E07B68DB7803F00203002BBE
:104684000CD17B6800229A7008E07B68DB7803F029
:104694000203002B02D17B6800229A7007F14C03BD
:1046A400BB632A4B1B68D3F8F03007F1280210468D
:1046B40098470346002B34D14FF000034FF0000419
:1046C400C7E90434BB8F3B813B6CA7F85C301F4BBC
:1046D4001B68D3F8E430B7F85C2007F108011046F2
:1046E40098470346002B12D17B681B7A03F0020320
:1046F400002B02D13A697B685A607B68DB7803F04F
:104704000203002B1AD17B6801229A7016E07B68A1
:10471400DB7803F00203002B10D17B6800229A702F
:104724000CE07B68DB7803F00203002B06D17B6886
:1047340000229A7000BF01E000BF00E000BF6437B0
:10474400BD4690BD746310087C631008FC0400200F
:1047540080B483B000AF78600B46FB707B680122A5
:104764001A707B685B785AB2FB78002B01D0042363
:1047740000E0002313435BB2DAB27B685A707B68B3
:1047840001229A707B68DB785AB2FB78002B01D047
:10479400042300E0002313435BB2DAB27B68DA70CF
:1047A4007B684FF000025A607B681B7A5AB2FB7830
:1047B400002B01D0042300E0002313435BB2DAB2E0
:1047C4007B681A7200BF0C37BD465DF8047B7047E6
:1047D40090B595B000AF78607B681B78002B09D149
:1047E4007B68DB7803F00203002B60D17B68002236
:1047F4009A705CE07B68DB7803F00203002B02D143
:104804007B6800229A702D4B07F140040FCB07C43C
:10481400238007F14003FB62294B1B68D3F8F03077
:1048240007F11C02104698470346002B34D14FF081
:1048340000034FF00004C7E904343B8E3B817B6BDB
:10484400A7F84E301E4B1B68D3F8E430B7F84E205F
:1048540007F10801104698470346002B12D17B68E4
:104864001B7A03F00203002B02D13A697B685A6079
:104874007B68DB7803F00203002B1AD17B680122EA
:104884009A7016E07B68DB7803F00203002B10D1EA
:104894007B6800229A700CE07B68DB7803F00203EB
:1048A400002B06D17B6800229A7000BF01E000BF94
:1048B40000E000BF5437BD4690BD00BF84631008BC
:1048C400FC04002090B482B000AF78600B46FB700B
:1048D4007B6801221A707B685B785AB2FB78002BE4
:1048E40001D0042300E0002313435BB2DAB27B68F7
:1048F4005A707B6801229A707B68DB785AB2FB7825
:10490400002B01D0042300E0002313435BB2DAB28E
:104914007B68DA707A684FF000034FF00004C2E954
:1049240002347B681B7C5AB2FB78002B01D0042331
:1049340000E0002313435BB2DAB27B681A7400BF51
:104944000837BD4690BC7047B0B594B000AF7860EE
:104954007B681B78002B09D17B68DB7803F00203AA
:10496400002B64D17B6800229A7060E07B68DB785E
:1049740003F00203002B02D17B6800229A702F4BB4
:1049840007F13C041D460FCD0FC42B68237007F1BB
:104994003C03BB622A4B1B68D3F8F03007F11802C2
:1049A400104698470346002B36D14FF000034FF0D2
:1049B4000004C7E90434BB8D3B813B6BA7F84E3040
:1049C4001F4B1B68D3F8E430B7F84E2007F10801F9
:1049D400104698470346002B14D17B681B7C03F0D8
:1049E4000203002B04D1D7E904347A68C2E9023403
:1049F4007B68DB7803F00203002B1AD17B68012269
:104A04009A7016E07B68DB7803F00203002B10D168
:104A14007B6800229A700CE07B68DB7803F0020369
:104A2400002B06D17B6800229A7000BF01E000BF12
:104A340000E000BF5037BD46B0BD00BF946310080E
:104A4400FC04002080B483B000AF78600B46FB7098
:104A54007B6801221A707B685B785AB2FB78002B62
:104A640001D0042300E0002313435BB2DAB27B6875
:104A74005A707B6801229A707B68DB785AB2FB78A3
:104A8400002B01D0042300E0002313435BB2DAB20D
:104A94007B68DA707B6800229A807B689B795AB2C3
:104AA400FB78002B01D0042300E0002313435BB206
:104AB400DAB27B689A7100BF0C37BD465DF8047B9F
:104AC40070470000B0B594B002AF78607B681B7883
:104AD400002B09D17B68DB7803F00203002B53D150
:104AE4007B6800229A704FE02A4A07F13C0307CA08
:104AF40003C31A7007F13C03BB62274B1B68D3F84E
:104B0400F03007F11802104698470346002B30D1C5
:104B14007B689B883B82BB8D3B813B6BA7F846300F
:104B24001D4B1B68D3F8DC40B7F846506A4607F1C2
:104B3400100393E8030082E8030007F108030CCB99
:104B44002846A0470346002B09D17B68DB7803F095
:104B54000203002B1AD17B6801229A7016E07B684D
:104B6400DB7803F00203002B10D17B6800229A70DB
:104B74000CE07B68DB7803F00203002B06D17B6832
:104B840000229A7000BF01E000BF00E000BF483778
:104B9400BD46B0BDA8631008FC04002080B483B0F7
:104BA40000AF78600B46FB707B6801221A707B684B
:104BB4005B785AB2FB78002B01D0042300E0002379
:104BC40013435BB2DAB27B685A707B6801229A7035
:104BD4007B68DB785AB2FB78002B01D0042300E019
:104BE400002313435BB2DAB27B68DA707B6800227D
:104BF4009A807B689B795AB2FB78002B01D00423FE
:104C040000E0002313435BB2DAB27B689A717B68DD
:104C140000221A817B689B7A5AB2FB78002B01D060
:104C2400042300E0002313435BB2DAB27B689A7278
:104C34007B6800229A817B689B7B5AB2FB78002BAD
:104C440001D0042300E0002313435BB2DAB27B6893
:104C54009A737B6800221A827B689B7C5AB2FB7829
:104C6400002B01D0042300E0002313435BB2DAB22B
:104C74007B689A747B6800229A827B689B7D5AB217
:104C8400FB78002B01D0042300E0002313435BB224
:104C9400DAB27B689A757B6800221A837B689B7EF4
:104CA4005AB2FB78002B01D0042300E00023134305
:104CB4005BB2DAB27B689A7600BF0C37BD465DF80A
:104CC400047B7047B0B5A6B002AF78607B681B78F0
:104CD400002B0AD17B68DB7803F00203002B40F041
:104CE400E6807B6800229A70E1E0734A07F17C0356
:104CF40007CA03C31A800233120C1A706F4A07F1F1
:104D0400700307CA03C31A800233120C1A706C4A68
:104D140007F1640307CA03C31A800233120C1A7022
:104D2400684A07F1580307CA03C31A800233120CF6
:104D34001A70654A07F14C0307CA03C31A80023389
:104D4400120C1A70614A07F1400307CA03C31A80A0
:104D54000233120C1A700023A7F88E30002387F850
:104D64008D3099E097F88D30052B3FD801A252F889
:104D740023F000BF914D1008A14D1008B14D10084B
:104D8400C14D1008D14D1008E14D100807F17C0306
:104D9400FB617B689B88A7F88E3031E007F17003D4
:104DA400FB617B681B89A7F88E3029E007F1640357
:104DB400FB617B689B89A7F88E3021E007F15803DB
:104DC400FB617B681B8AA7F88E3019E007F14C035E
:104DD400FB617B689B8AA7F88E3011E007F14003E2
:104DE400FB617B681B8BA7F88E3009E07B68DB785E
:104DF40003F00203002B02D17B6800229A7000BFEB
:104E0400334B1B68D3F8F03007F10C021046984777
:104E14000346002B35D1B7F88E303B873B8C3B865D
:104E24007B6AA7F88A302A4B1B68D3F8DC40B7F8B2
:104E34008A506A4607F1380393E8030082E80300C6
:104E440007F130030CCB2846A0470346002B0ED1B4
:104E54007B68DB7803F00203002B02D17B6801221C
:104E64009A7097F88D30013387F88D3014E07B68A1
:104E7400DB7803F00203002B14D17B6800229A70C4
:104E840016E07B68DB7803F00203002B0CD17B680F
:104E940000229A7000BF07E097F88D30052B7FF64B
:104EA40061AF02E000BF00E000BF00BF00E000BF50
:104EB4009037BD46B0BD00BFB4631008C06310088E
:104EC400CC631008D8631008E4631008F06310087A
:104ED400FC04002080B483B000AF78600B46FB7004
:104EE4007B6801221A707B685B785AB2FB78002BCE
:104EF40001D0042300E0002313435BB2DAB27B68E1
:104F04005A707B6801229A707B68DB785AB2FB780E
:104F1400002B01D0042300E0002313435BB2DAB278
:104F24007B68DA707B6800221A717B685B795AB2FD
:104F3400FB78002B01D0042300E0002313435BB271
:104F4400DAB27B685A717B6800229A607B681B7BAB
:104F54005AB2FB78002B01D0042300E00023134352
:104F64005BB2DAB27B681A7300BF0C37BD465DF8DA
:104F7400047B7047B0B596B002AF78607B681B784D
:104F8400002B09D17B68DB7803F00203002B6BD183
:104F94007B6800229A7067E0364B07F13C041D469B
:104FA4000FCD0FC42B68237007F13C03BB62324B57
:104FB4001B68D3F8F03007F11802104698470346EF
:104FC400002B46D1BB8D3B813B6B87F84F302A4B7E
:104FD4001B68D3F8EC30BA8D1046984703461A463E
:104FE4007B681B7912FB03F387F84E3097F84F2048
:104FF40097F84E30134487F84F307B689B683B61C9
:105004001D4B1B68D3F8DC4097F84F506A4607F1F4
:10501400100393E8030082E8030007F108030CCBB4
:105024002846A0470346002B09D17B68DB7803F0B0
:105034000203002B1AD17B6801229A7016E07B6868
:10504400DB7803F00203002B10D17B6800229A70F6
:105054000CE07B68DB7803F00203002B06D17B684D
:1050640000229A7000BF01E000BF00E000BF50378B
:10507400BD46B0BDFC631008FC04002080B483B0BE
:1050840000AF78600B46FB707B6801221A707B6866
:105094005B785AB2FB78002B01D0042300E0002394
:1050A40013435BB2DAB27B685A707B6801229A7050
:1050B4007B68DB785AB2FB78002B01D0042300E034
:1050C400002313435BB2DAB27B68DA707B68002298
:1050D4009A807B689B795AB2FB78002B01D0042319
:1050E40000E0002313435BB2DAB27B689A717B68F9
:1050F40000221A817B689B7A5AB2FB78002B01D07C
:10510400042300E0002313435BB2DAB27B689A7293
:1051140000BF0C37BD465DF8047B7047B0B598B04E
:1051240002AF78607B681B78002B09D17B68DB7841
:1051340003F00203002B6BD17B6800229A7067E0B6
:10514400364B07F140041D460FCD0FC42B68237066
:1051540007F14003FB62324B1B68D3F8F03007F1D0
:105164001C02104698470346002B46D13B8E3B81D8
:105174007B6BA7F856302A4B1B68D3F8EC303A8E79
:105184001046984703469AB27B689B8812FB03F348
:10519400A7F85430B7F85620B7F854301344A7F89A
:1051A40056307B681B893B821D4B1B68D3F8DC405F
:1051B400B7F856506A4607F1100393E8030082E8F3
:1051C400030007F108030CCB2846A0470346002B35
:1051D40009D17B68DB7803F00203002B1AD17B68CA
:1051E40001229A7016E07B68DB7803F00203002B3F
:1051F40010D17B6800229A700CE07B68DB7803F0A6
:105204000203002B06D17B6800229A7000BF01E0E4
:1052140000BF00E000BF5837BD46B0BD10641008A1
:10522400FC04002080B483B000AF78600B46FB70B0
:105234007B6801221A707B685B785AB2FB78002B7A
:1052440001D0042300E0002313435BB2DAB27B688D
:105254005A707B6801229A707B68DB785AB2FB78BB
:10526400002B01D0042300E0002313435BB2DAB225
:105274007B68DA707B6800229A807B689B795AB2DB
:10528400FB78002B01D0042300E0002313435BB21E
:10529400DAB27B689A717B6800229A607B681B7B18
:1052A4005AB2FB78002B01D0042300E000231343FF
:1052B4005BB2DAB27B681A7300BF0C37BD465DF887
:1052C400047B7047B0B596B002AF78607B681B78FA
:1052D400002B09D17B68DB7803F00203002B69D132
:1052E4007B6800229A7065E0354B07F13C040FCBD4
:1052F40007C4237007F13C03BB62324B1B68D3F82D
:10530400F03007F11802104698470346002B46D1A7
:10531400BB8D3B813B6BA7F84E302A4B1B68D3F8FF
:10532400EC30BA8D1046984703469AB27B689B8846
:1053340012FB03F3A7F84C30B7F84E20B7F84C3003
:105344001344A7F84E307B689B683B611D4B1B6878
:10535400D3F8DC40B7F84E506A4607F1100393E8DF
:10536400030082E8030007F108030CCB2846A0479A
:105374000346002B09D17B68DB7803F00203002B82
:105384001AD17B6801229A7016E07B68DB7803F0FF
:105394000203002B10D17B6800229A700CE07B681A
:1053A400DB7803F00203002B06D17B6800229A709D
:1053B40000BF01E000BF00E000BF5037BD46B0BDF4
:1053C40024641008FC04002080B483B000AF78602B
:1053D4000B46FB707B6801221A707B685B785AB2BB
:1053E400FB78002B01D0042300E0002313435BB2BD
:1053F400DAB27B685A707B6801229A707B68DB782A
:105404005AB2FB78002B01D0042300E0002313439D
:105414005BB2DAB27B68DA707B6800229A807B68C0
:105424009B795AB2FB78002B01D0042300E00023BF
:1054340013435BB2DAB27B689A717B6800221A81EB
:105444007B689B7A5AB2FB78002B01D0042300E0DE
:10545400002313435BB2DAB27B689A7200BF0C3745
:10546400BD465DF8047B7047B0B594B002AF786078
:105474007B681B78002B09D17B68DB7803F002037F
:10548400002B6AD17B6800229A7066E0364A07F1E5
:105494003C0392E8030083E8030007F13C03BB628A
:1054A400324B1B68D3F8F03007F1180210469847C6
:1054B4000346002B46D1BB8D3B813B6BA7F846309E
:1054C4002A4B1B68D3F8EC30BA8D10469847034634
:1054D4009AB27B689B8812FB03F3A7F84430B7F8B1
:1054E4004620B7F844301344A7F846307B681B893C
:1054F4003B821E4B1B68D3F8DC40B7F846506A4623
:1055040007F1100393E8030082E8030007F108039E
:105514000CCB2846A0470346002B09D17B68DB78D7
:1055240003F00203002B1AD17B6801229A7016E063
:105534007B68DB7803F00203002B10D17B68002228
:105544009A700CE07B68DB7803F00203002B06D131
:105554007B6800229A7000BF01E000BF00E000BF3A
:105564004837BD46B0BD00BF34641008FC040020B9
:1055740080B483B000AF78600B46FB707B68012277
:105584001A707B685B785AB2FB78002B01D0042335
:1055940000E0002313435BB2DAB27B685A707B6885
:1055A40001229A707B68DB785AB2FB78002B01D019
:1055B400042300E0002313435BB2DAB27B68DA70A1
:1055C4007B6800229A807B689B795AB2FB78002B17
:1055D40001D0042300E0002313435BB2DAB27B68FA
:1055E4009A717B6800221A817B689B7A5AB2FB7895
:1055F400002B01D0042300E0002313435BB2DAB292
:105604007B689A7200BF0C37BD465DF8047B704717
:10561400B0B594B002AF78607B681B78002B09D1D9
:105624007B68DB7803F00203002B5CD17B680022EB
:105634009A7058E02F4A07F13C0392E8030083E88C
:10564400030007F13C03BB622B4B1B68D3F8F0301B
:1056540007F11802104698470346002B38D17B689F
:105664009B881AB27B681B891B011BB213431BB2B4
:105674009BB23B82BB8D3B813B6BA7F846301E4BF4
:105684001B68D3F8DC40B7F846506A4607F11003AC
:1056940093E8030082E8030007F108030CCB2846D3
:1056A400A0470346002B09D17B68DB7803F0020393
:1056B400002B1AD17B6801229A7016E07B68DB7894
:1056C40003F00203002B10D17B6800229A700CE0D7
:1056D4007B68DB7803F00203002B06D17B68002291
:1056E4009A7000BF01E000BF00E000BF4837BD462C
:1056F400B0BD00BF3C641008FC04002080B483B03B
:1057040000AF78600B46FB707B6801221A707B68DF
:105714005B785AB2FB78002B01D0042300E000230D
:1057240013435BB2DAB27B685A707B6801229A70C9
:105734007B68DB785AB2FB78002B01D0042300E0AD
:10574400002313435BB2DAB27B68DA707B68002211
:105754009A807B689B795AB2FB78002B01D0042392
:1057640000E0002313435BB2DAB27B689A717B6872
:1057740000221A817B689B7A5AB2FB78002B01D0F5
:10578400042300E0002313435BB2DAB27B689A720D
:1057940000BF0C37BD465DF8047B7047B0B596B0CA
:1057A40002AF78607B681B78002B09D17B68DB78BB
:1057B40003F00203002B5ED17B6800229A705AE04A
:1057C400304A07F1400307CA03C31A800233120C9C
:1057D4001A7007F14003FB622B4B1B68D3F8F030BF
:1057E40007F11C02104698470346002B38D17B680A
:1057F4009B881AB27B681B891B011BB213431BB223
:105804009BB23B823B8E3B817B6BA7F84E301E4B99
:105814001B68D3F8DC40B7F84E506A4607F1100312
:1058240093E8030082E8030007F108030CCB284641
:10583400A0470346002B09D17B68DB7803F0020301
:10584400002B1AD17B6801229A7016E07B68DB7802
:1058540003F00203002B10D17B6800229A700CE045
:105864007B68DB7803F00203002B06D17B680022FF
:105874009A7000BF01E000BF00E000BF5037BD4692
:10588400B0BD00BF44631008FC04002080B483B0A2
:1058940000AF78600B46FB707B6801221A707B684E
:1058A4005B785AB2FB78002B01D0042300E000237C
:1058B40013435BB2DAB27B685A707B6801229A7038
:1058C4007B68DB785AB2FB78002B01D0042300E01C
:1058D400002313435BB2DAB27B68DA707B68002280
:1058E4009A807B689B795AB2FB78002B01D0042301
:1058F40000E0002313435BB2DAB27B689A7100BF05
:105904000C37BD465DF8047B70470000B0B596B017
:1059140002AF78607B681B78002B09D17B68DB7849
:1059240003F00203002B53D17B6800229A704FE0EE
:105934002A4A07F1400307CA83E8070007F1400336
:10594400FB62274B1B68D3F8F03007F11C021046AA
:1059540098470346002B30D17B689B883B823B8E63
:105964003B817B6BA7F84E301D4B1B68D3F8DC40A2
:10597400B7F84E506A4607F1100393E8030082E833
:10598400030007F108030CCB2846A0470346002B6D
:1059940009D17B68DB7803F00203002B1AD17B6802
:1059A40001229A7016E07B68DB7803F00203002B77
:1059B40010D17B6800229A700CE07B68DB7803F0DE
:1059C4000203002B06D17B6800229A7000BF01E01D
:1059D40000BF00E000BF5037BD46B0BD44641008AE
:1059E400FC04002080B483B000AF78600B46FB70E9
:1059F4007B6801221A707B685B785AB2FB78002BB3
:105A040001D0042300E0002313435BB2DAB27B68C5
:105A14005A707B6801229A707B68DB785AB2FB78F3
:105A2400002B01D0042300E0002313435BB2DAB25D
:105A34007B68DA707B6800221A717B685B795AB2E2
:105A4400FB78002B01D0042300E0002313435BB256
:105A5400DAB27B685A717B680022DA807B681B7A31
:105A64005AB2FB78002B01D0042300E00023134337
:105A74005BB2DAB27B681A7200BF0C37BD465DF8C0
:105A8400047B7047B0B596B002AF78607B681B7832
:105A9400002B09D17B68DB7803F00203002B69D16A
:105AA4007B6800229A7065E0354A07F1400307CA13
:105AB40083E8070007F14003FB62324B1B68D3F80D
:105AC400F03007F11C02104698470346002B46D1DC
:105AD4003B8E3B817B6B87F84F302A4B1B68D3F896
:105AE400EC303A8E1046984703461A467B681B7979
:105AF40012FB03F387F84E3097F84F2097F84E3097
:105B0400134487F84F307B68DB883B821D4B1B684E
:105B1400D3F8DC4097F84F506A4607F1100393E836
:105B2400030082E8030007F108030CCB2846A047D2
:105B34000346002B09D17B68DB7803F00203002BBA
:105B44001AD17B6801229A7016E07B68DB7803F037
:105B54000203002B10D17B6800229A700CE07B6852
:105B6400DB7803F00203002B06D17B6800229A70D5
:105B740000BF01E000BF00E000BF5037BD46B0BD2C
:105B840050641008FC04002080B483B000AF786037
:105B94000B46FB707B6801221A707B685B785AB2F3
:105BA400FB78002B01D0042300E0002313435BB2F5
:105BB400DAB27B685A707B6801229A707B68DB7862
:105BC4005AB2FB78002B01D0042300E000231343D6
:105BD4005BB2DAB27B68DA707B6800221A717B6888
:105BE4005B795AB2FB78002B01D0042300E0002338
:105BF40013435BB2DAB27B685A717B6800229A71F4
:105C04007B68DB795AB2FB78002B01D0042300E0D7
:105C1400002313435BB2DAB27B68DA717B6800223B
:105C24001A727B685B7A5AB2FB78002B01D004238A
:105C340000E0002313435BB2DAB27B685A727B68DC
:105C440000229A727B68DB7A5AB2FB78002B01D06F
:105C5400042300E0002313435BB2DAB27B68DA72F8
:105C64007B6800221A737B685B7B5AB2FB78002B3B
:105C740001D0042300E0002313435BB2DAB27B6853
:105C84005A737B6800229A737B68DB7B5AB2FB7879
:105C9400002B01D0042300E0002313435BB2DAB2EB
:105CA4007B68DA737B6800221A747B685B7C5AB267
:105CB400FB78002B01D0042300E0002313435BB2E4
:105CC400DAB27B685A747B6800229A747B68DB7C46
:105CD4005AB2FB78002B01D0042300E000231343C5
:105CE4005BB2DAB27B68DA747B6800229A827B68E2
:105CF4009B7D5AB2FB78002B01D0042300E00023E3
:105D040013435BB2DAB27B689A7500BF0C37BD46A9
:105D14005DF8047B7047000080B592B000AF7860F6
:105D24007B681B78002B0AD17B68DB7803F00203C5
:105D3400002B40F0A1807B6800229A709CE07B6875
:105D4400DB7803F00203002B02D17B6800229A70F7
:105D54004C4A07F13C0307CA03C31A7007F13C031A
:105D6400BB62494B1B68D3F8F03007F118021046A8
:105D740098470346002B74D13B6BA7F84630424B3F
:105D84001B68D3F8E830B7F8460007F10C010A2283
:105D940098470346002B5AD17B685B7903F00203D2
:105DA400002B02D13A7B7B681A717B68DB7903F0A4
:105DB4000203002B02D17A7B7B689A717B685B7A41
:105DC40003F00203002B02D1BA7B7B681A727B6852
:105DD400DB7A03F00203002B02D1FA7B7B689A7210
:105DE4007B685B7B03F00203002B02D13A7C7B6867
:105DF4001A737B68DB7B03F00203002B02D17A7CED
:105E04007B689A737B685B7C03F00203002B02D1EE
:105E1400BA7C7B681A747B68DB7C03F00203002B7A
:105E240002D1FA7C7B689A747B689B7D03F0020341
:105E3400002B02D1BA8A7B689A827B68DB7803F0F4
:105E44000203002B1AD17B6801229A7016E07B684A
:105E5400DB7803F00203002B10D17B6800229A70D8
:105E64000CE07B68DB7803F00203002B06D17B682F
:105E740000229A7000BF01E000BF00E000BF483775
:105E8400BD4680BD5C641008FC040020704700BF60
:105E9400704700BF024B13B1024800F005B87047C9
:105EA40000000000B95E1008002301461A46184697
:105EB40000F01AB838B50A4C0A4D641BA4100AD075
:105EC40004F18043013B05EB8305013C55F804399B
:105ED4009847002CF9D1BDE8384000F06DB800BFF8
:105EE400D45F1008D05F10082DE9F8432C4D064606
:105EF400286898460F469146FFF7C8FF294B1C684F
:105F0400D4F84831002B3ED05A681F2A1CDC02F119
:105F1400010E76B103EB82010124C1F88890D3F815
:105F2400880194402043022EC3F88801C1F80881F7
:105F340023D00232C3F804E0286843F82270FFF744
:105F4400A7FF0020BDE8F883174B0BB34FF4C870CC
:105F5400AFF300800346D8B1D4F848210260002191
:105F640041600A46C4F848014FF0010EC0F8881198
:105F7400C0F88C11002EDCD0CCE7D3F88C110C4384
:105F8400C3F88C41D5E704F5A673C4F84831BBE7E0
:105F94002868FFF77DFF4FF0FF30BDE8F88300BFAE
:105FA400D8040020046E100800000000F8B500BFFB
:105FB400F8BC08BC9E467047F8B500BFF8BC08BCE6
:045FC4009E4670473E
:085FC800995E10082103100886
:045FD000FD021008B6
:105FD4004945432036313133312D332072756E7487
:105FE400696D65206572726F722E0A0044495F4EB6
:105FF400554D42455200000056414C0056414C302C
:106004000000000056414C310000000052543100A1
:106014005254320052543300525434005254350016
:1060240052543600525437005254380052543900F6
:106034004354524C000000004E554D004144520060
:10604400553100005532000055330000553500002D
:1060540055360000553700004149530054490000AB
:106064005753460057534500444F50460000000024
:10607400434E54004652455100000000444F4F55D2
:10608400000000005057525F560000004241545F28
:106094005600000052455345545F4E554D000000D4
:1060A4004C4153545F524553455400005359535F78
:1060B4005449434B00000000444F5600444F4D00E8
:1060C4004945432036313133312D332072756E7496
:1060D400696D65206572726F722E0A0055534552C0
:1060E4005F5441534B3A707265696E697420646100
:1060F40074612073697A6520256C750A00000000BC
:10610400555345525F5441534B3A62737320736540
:106114006374696F6E2073697A6520256C750A0053
:10612400555345525F5441534B3A73656E646564ED
:1061340020616464726573732025700A0000000096
:10614400555345525F5441534B3A636F6D6D6F6EB7
:106154005F7469636B74696D655F6D736563202536
:106164006C6C750A00000000555345525F5441534E
:106174004B3A636F6D6D6F6E5F7469636B74696DB9
:106184006520256C6C750A00555345525F54415384
:106194004B3A6572726F72206F6E20656E68616E25
:1061A400636D74206D6F64627573207370616365D1
:1061B400200A0000555345525F5441534B3A6164E1
:1061C40064207573657220726567732064657363F8
:1061D40072697074696F6E207461626C652077698E
:1061E40074682025750A0000555345525F54415385
:1061F4004B3A7465726D696E6174652073656C6683
:1062040020000000757365725F7461736B5F737453
:1062140061746500706F6F6C20666F7220656E68C4
:10622400616E636D656E74206D6F64627573207347
:10623400706163652069732066756C6C200A0000C8
:10624400555345525F5441534B3A7465726D696EB0
:10625400617465207072657669657720746872650B
:10626400616400006D6F646275735F6D6173746562
:10627400725F31004945432036313133312D3320AB
:1062840072756E74696D65206572726F722E0A0084
:1062940072657461696E207661726961626C650011
:1062A40052455441494E206D656D6F727920696E77
:1062B40076616C6964202D2064656661756C747305
:1062C400207573656400000049454320363131333D
:1062D400312D332072756E74696D65206572726F2D
:1062E400722E0A00756E69785F74696D655F7365F7
:1062F400630000004945432036313133312D3320CA
:1063040072756E74696D65206572726F722E0A0003
:1063140064695F73746174650000000064695F639D
:106324006E74000064695F667265710061695F7311
:10633400746174650000000061695F756E697400C2
:10634400646F5F73635F6374726C0000646F5F7388
:10635400746174650000000072657365745F6E7526
:106364006D0000006C6173745F7265736574000086
:10637400765F626174000000765F707772000000DF
:10638400696E7465726E616C5F74656D7000000097
:106394007379735F7469636B5F636F756E74657231
:1063A400000000006D64625F6164647200000000BC
:1063B40075617274315F7365747300007561727412
:1063C400325F73657473000075617274335F736553
:1063D4007473000075617274355F736574730000C3
:1063E40075617274365F73657473000075617274DD
:1063F400375F7365747300006368616E6E656C73F8
:106404005F74696D656F75740000000064695F6E88
:106414006F6973655F666C74725F7573000000006A
:1064240064695F70756C73656C657373000000005C
:1064340064695F6D6F646500646F5F6374726C00A0
:10644400646F5F70776D5F6672657100646F5F7013
:10645400776D5F6374726C0074696D655F686D73EA
:1064640000000000756E69785F74696D655F73651F
:10647400630000000000000004050020000000008C
:10648400F05F1008F05F100802000000FEFF01102A
:10649400010008000000000805002000000000FCC6
:1064A4005F1008FC5F100804000100FEFF011001EA
:1064B400000800000000100500200000000000603B
:1064C40010080060100802000200FEFF0110010025
:1064D40008000000001405002000000000086010FF
:1064E400080860100802000300FEFF011001000804
:1064F40000000000180500200000000010601008D3
:106504001060100801000400FEFF011001000800E3
:106514000000001C05002000000000146010081496
:1065240060100801000500FEFF01100100080000D2
:10653400000020050020000000001860100818600A
:10654400100801000600FEFF011001000800000011
:106554000024050020000000001C6010081C6010CE
:106564000801000700FEFF01100100080000000000
:10657400280500200000000020601008206010089A
:1065840001000800FEFF0110010008000000002CBB
:106594000500200000000024601008246010080199
:1065A400000900FEFF011001000800000000300592
:1065B4000020000000002860100828601008010076
:1065C4000A00FEFF0110010008000000003405006D
:1065D40020000000002C6010082C60100801000B43
:1065E40000FEFF0110010008000000003805002033
:1065F40000000000306010083060100802000C0039
:10660400FEFF0110010008000000003C050020000E
:10661400000000346010083460100802000D00FE11
:10662400FF011001000800000000400500200000E8
:1066340000003C6010083C60100801000E00FEFFE2
:1066440001100100080000000044050020000000C3
:1066540000406010084060100802000F00FEFF01B7
:1066640010010008000000004805002000000000A0
:10667400446010084460100802001000FEFF01107E
:10668400010008000000004C050020000000004844
:106694006010084860100802001100FEFF0110019C
:1066A40000080000000050050020000000004C60BD
:1066B40010084C60100802001200FEFF01100100D7
:1066C4000800000000540500200000000050601085
:1066D400085060100802001300FEFF0110010008BA
:1066E400000000005805002000000000546010085D
:1066F4005460100802001400FEFF0110010008009D
:106704000000005C050020000000005860100858DC
:1067140060100802001500FEFF01100100080000CF
:10672400000060050020000000005C6010085C6050
:10673400100802001600FEFF01100100080000000E
:106744000064050020000000006060100860601014
:106754000804001700FEFF011001000800000000FB
:106764006C050020000000006460100864601008DC
:1067740002001800FEFF0110010008000000007074
:10678400050020000000006860100868601008021E
:10679400001900FEFF01100100080000000074054C
:1067A4000020000000006C6010086C6010080200FB
:1067B4001A00FEFF01100100080000000078050027
:1067C4002000000000746010087460100808001BAA
:1067D40000FEFF01100100080000000088050020F1
:1067E40000000000786010087860100800011C00A8
:1067F400FEFF0110010008000000009005002000C9
:10680400000000806010088060100801001D00FE78
:10681400FF011001000800000000940500200000A2
:106824000000886010088860100800011E00FEFF48
:106834000110010008000000009C05002000000079
:1068440000906010089060100800011F00FEFF0116
:106854001001000800000000A40500200000000052
:10686400986010089860100802002000FEFF0110D4
:1068740001000800000000A805002000000000A49A
:10688400601008A460100802002100FEFF0110013E
:10689400000800000000B005002000000000B06007
:1068A4001008B060100808002200FEFF011001006B
:1068B4000800000000C005002000000000BC6010BB
:1068C40008BC60100802002300FEFF01100100084C
:1068D40000000000C405002000000000C060100893
:1068E400C060100802002400FEFF0110010008002F
:1068F400040500200700000008050020080000002F
:106904001005002007000000140500200700000007
:1069140018050020060000001C05002006000000E9
:1069240020050020060000002405002006000000C9
:1069340028050020060000002C05002006000000A9
:106944003005002006000000340500200600000089
:1069540038050020070000003C0500200700000067
:106964004005002006000000440500200700000048
:1069740048050020070000004C0500200700000027
:106984005005002007000000540500200700000007
:1069940058050020070000005C05002007000000E7
:1069A40060050020070000006405002008000000C6
:1069B4006C0500200700000070050020070000009F
:1069C400740500200700000078050020090000007D
:1069D400880500200000000090050020060000004B
:1069E40094050020000000009C0500200000000029
:1069F400A405002007000000A805002007000000EF
:106A0400B005002009000000C005002007000000B8
:106A1400C405002007000000F00500200F0000005E
:106A2400F20500200F000000F4050020070000001C
:106A3400F805002008000000000600200F000000F8
:106A4400020600200F0000000406002007000000DA
:106A540008060020070000000C0600200F000000BC
:106A64000E0600200F0000001006002007000000A2
:106A7400140600200700000018060020070000008C
:106A84001C0600200700000020060020070000006C
:106A94002406002007000000280600200F00000044
:106AA4002A0600200F0000002C060020060000002B
:106AB4003006002008000000380600200F00000007
:106AC4003A0600200F0000003C06002007000000EA
:106AD400400600200F000000420600200F000000C6
:106AE4004406002007000000480600200F000000B4
:106AF4004A0600200F000000500600200900000094
:106B0400600600200F000000620600200F00000055
:106B14006406002007000000680600200F00000043
:106B24006A0600200F0000006C0600200700000029
:106B34007006002007000000740600200F0000000B
:106B4400760600200F0000007806002000000000F8
:106B54008006002000000000880600200F000000CE
:106B64008A0600200F0000008C06002006000000AA
:106B7400900600200F000000920600200F00000085
:106B84009406002007000000980600200000000082
:106B9400A00600200F000000A20600200F00000045
:106BA400A406002006000000A6060020060000003F
:106BB400A806002006000000AA0600200600000027
:106BC400AC06002006000000AE060020060000000F
:106BD400B006002006000000B206002006000000F7
:106BE400B406002007000000B80600200F000000D3
:106BF400BA0600200F000000BC06002006000000BA
:106C0400BE06002006000000C00600200F000000A1
:106C1400C20600200F000000C40600200700000088
:106C2400C806002007000000CC0600200F0000006A
:106C3400CE0600200F000000D00600200700000050
:106C4400D406002007000000D80600200F00000032
:106C5400DA0600200F000000DC0600200700000018
:106C6400E006002009000000F00600200F000000EC
:106C7400F20600200F000000F406002006000000C9
:106C8400F606002007000000FC0600200F000000AC
:106C9400FE0600200F000000000700200000000096
:106CA400080700201B000000100700201C00000043
:106CB4001C0700201B000000240700201B0000000C
:106CC4002C0700201A000000340700201A000000DE
:106CD4003C0700201A000000440700201A000000AE
:106CE4004C0700201A000000540700201A0000007E
:106CF4005C0700201A000000640700201A0000004E
:106D04006C0700201B000000740700201A0000001C
:106D14007C0700201B000000840700201B000000EB
:106D24008C0700201B000000940700201B000000BB
:106D34009C0700201B000000A40700201B0000008B
:106D4400AC0700201B000000B40700201B0000005B
:106D5400BC0700201B000000C40700201C0000002A
:106D6400D00700201B000000D80700201B000000F3
:106D7400E00700201B000000E80700201D000000C1
:106D8400F807002014000000040800201A00000086
:106D94000C08002014000000180800201400000053
:106DA400240800201B0000002C0800201B00000009
:106DB400380800201D000000480800201B000000C7
:106DC400500800201B0000005808002006000000A6
:106DD4005A080020060000005C08002000000000A3
:106DE400640800200F000000660800200F00000067
:106DF40068080020070000006C080020070000005D
:046E0400B0000020BA
:086E08009095FF7F01000000DE
:106E100064000000E80300000405002008050020CD
:106E20001005002014050020180500201C05002076
:106E30002005002024050020280500202C05002026
:106E40003005002034050020380500203C050020D6
:106E50004005002044050020480500204C05002086
:106E60005005002054050020580500205C05002036
:106E700060050020640500206C05002070050020DE
:106E8000740500207805002088050020900500206A
:106E9000940500209C050020A4050020A8050020E2
:106EA000B0050020C0050020C4050020000000003F
:106EB000002D310100000000CC050020000400007E
:106EC000000000009C030020040400206C0400204B
:106ED00000000000000000000000000000000000B2
:106EE00000000000000000000000000000000000A2
:106EF0000000000000000000000000000000000092
:106F00000000000000000000000000000000000081
:106F10000000000000000000000000000000000071
:106F20000000000000000000000000000000000061
:106F30000000000000000000000000000000000051
:106F40000000000000000000000000000000000041
:106F50000000000000000000000000000000000031
:106F60000000000000000000010000000000000020
:106F70000E33CDAB34126DE6ECDE05000B000000E5
:106F80000000000000000000000000000000000001
:106F900000000000000000000000000000000000F1
:106FA00000000000000000000000000000000000E1
:106FB00000000000000000000000000000000000D1
:106FC00000000000000000000000000000000000C1
:106FD00000000000000000000000000000000000B1
:106FE00000000000000000000000000000000000A1
:106FF0000000000000000000000000000000000091
:107000000000000000000000000000000000000080
:107010000000000000000000000000000000000070
:107020000000000000000000000000000000000060
:107030000000000000000000000000000000000050
:107040000000000000000000000000000000000040
:107050000000000000000000000000000000000030
:107060000000000000000000000000000000000020
:107070000000000000000000000000000000000010
:107080000000000000000000000000000000000000
:1070900000000000000000000000000000000000F0
:1070A00000000000000000000000000000000000E0
:1070B00000000000000000000000000000000000D0
:1070C00000000000000000000000000000000000C0
:1070D00000000000000000000000000000000000B0
:1070E00000000000000000000000000000000000A0
:1070F0000000000000000000000000000000000090
:10710000000000000000000000000000000000007F
:10711000000000000000000000000000000000006F
:10712000000000000000000000000000000000005F
:10713000000000000000000000000000000000004F
:10714000000000000000000000000000000000003F
:10715000000000000000000000000000000000002F
:10716000000000000000000000000000000000001F
:10717000000000000000000000000000000000000F
:1071800000000000000000000000000000000000FF
:1071900000000000000000000000000000000000EF
:1071A00000000000000000000000000000000000DF
:1071B00000000000000000000000000000000000CF
:1071C00000000000000000000000000000000000BF
:1071D00000000000000000000000000000000000AF
:1071E000000000000000000000000000000000009F
:1071F000000000000000000000000000000000008F
:10720000000000000000000000000000000000007E
:10721000000000000000000000000000000000006E
:10722000000000000000000000000000000000005E
:10723000000000000000000000000000000000004E
:10724000000000000000000000000000000000003E
:10725000000000000000000000000000000000002E
:10726000000000000000000000000000000000001E
:10727000000000000000000000000000000000000E
:1072800000000000000000000000000000000000FE
:1072900000000000000000000000000000000000EE
:1072A00000000000000000000000000000000000DE
:1072B00000000000000000000000000000000000CE
:1072C00000000000000000000000000000000000BE
:1072D00000000000000000000000000000000000AE
:0C72E0000000000000000000700800200A
:00000001FF
